<?xml version="1.0" encoding="UTF-8"?>
<session version="1.0">
<refactoring comment="Delete resource &apos;Servers&apos;" deleteContents="false" description="Delete resource &apos;Servers&apos;" element1="/Servers" flags="7" id="org.eclipse.ltk.core.refactoring.delete.resources" resources="1" stamp="1582199111026"/>
</session>