127.0.0.1 - - [22/Feb/2020:12:01:55 +0530] "GET / HTTP/1.1" 404 1074
0:0:0:0:0:0:0:1 - - [22/Feb/2020:12:02:15 +0530] "GET /JSPDemo/HomePage.jsp HTTP/1.1" 200 829
127.0.0.1 - - [22/Feb/2020:12:05:03 +0530] "GET / HTTP/1.1" 404 1074
0:0:0:0:0:0:0:1 - - [22/Feb/2020:12:05:04 +0530] "GET /Advance_java_Demo/Login.html HTTP/1.1" 304 -
0:0:0:0:0:0:0:1 - - [22/Feb/2020:12:05:04 +0530] "GET /Advance_java_Demo/Login.css HTTP/1.1" 304 -
0:0:0:0:0:0:0:1 - - [22/Feb/2020:12:06:55 +0530] "GET /JSPDemo/HomePage.jsp HTTP/1.1" 200 734
0:0:0:0:0:0:0:1 - - [22/Feb/2020:12:07:21 +0530] "GET /JSPDemo/HomePage.jsp HTTP/1.1" 200 734
0:0:0:0:0:0:0:1 - - [22/Feb/2020:12:07:21 +0530] "GET /favicon.ico HTTP/1.1" 404 1085
0:0:0:0:0:0:0:1 - - [22/Feb/2020:12:08:05 +0530] "GET /JSPDemo/Login.html HTTP/1.1" 200 462
0:0:0:0:0:0:0:1 - - [22/Feb/2020:12:14:05 +0530] "GET /JSPDemo/HomePage.jsp HTTP/1.1" 200 779
0:0:0:0:0:0:0:1 - - [22/Feb/2020:12:26:08 +0530] "GET /JSPDemo/HomePage.jsp HTTP/1.1" 200 779
0:0:0:0:0:0:0:1 - - [22/Feb/2020:16:06:04 +0530] "GET /JSPDemo/HomePage.jsp HTTP/1.1" 200 1002
0:0:0:0:0:0:0:1 - - [22/Feb/2020:16:06:08 +0530] "GET /JSPDemo/HomePage.jsp HTTP/1.1" 200 1002
0:0:0:0:0:0:0:1 - - [22/Feb/2020:16:06:09 +0530] "GET /JSPDemo/HomePage.jsp HTTP/1.1" 200 1002
0:0:0:0:0:0:0:1 - - [22/Feb/2020:16:06:10 +0530] "GET /JSPDemo/HomePage.jsp HTTP/1.1" 200 1002
0:0:0:0:0:0:0:1 - - [22/Feb/2020:16:06:10 +0530] "GET /JSPDemo/HomePage.jsp HTTP/1.1" 200 1002
0:0:0:0:0:0:0:1 - - [22/Feb/2020:16:06:10 +0530] "GET /JSPDemo/HomePage.jsp HTTP/1.1" 200 1002
0:0:0:0:0:0:0:1 - - [22/Feb/2020:16:06:10 +0530] "GET /JSPDemo/HomePage.jsp HTTP/1.1" 200 1002
0:0:0:0:0:0:0:1 - - [22/Feb/2020:16:06:10 +0530] "GET /JSPDemo/HomePage.jsp HTTP/1.1" 200 1002
0:0:0:0:0:0:0:1 - - [22/Feb/2020:18:20:45 +0530] "GET /JSPDemo/Login.html HTTP/1.1" 200 640
0:0:0:0:0:0:0:1 - - [22/Feb/2020:18:20:45 +0530] "GET /JSPDemo/Login.css HTTP/1.1" 200 709
0:0:0:0:0:0:0:1 - - [22/Feb/2020:18:21:41 +0530] "GET /JSPDemo/Login.html HTTP/1.1" 200 667
0:0:0:0:0:0:0:1 - - [22/Feb/2020:18:21:41 +0530] "GET /JSPDemo/Login.css HTTP/1.1" 304 -
0:0:0:0:0:0:0:1 - - [22/Feb/2020:18:22:17 +0530] "GET /JSPDemo/Login.html HTTP/1.1" 304 -
0:0:0:0:0:0:0:1 - - [22/Feb/2020:18:22:17 +0530] "GET /JSPDemo/Login.css HTTP/1.1" 200 709
0:0:0:0:0:0:0:1 - - [22/Feb/2020:18:22:50 +0530] "GET /JSPDemo/Login.html HTTP/1.1" 304 -
0:0:0:0:0:0:0:1 - - [22/Feb/2020:18:22:50 +0530] "GET /JSPDemo/Login.css HTTP/1.1" 200 709
0:0:0:0:0:0:0:1 - - [22/Feb/2020:18:23:25 +0530] "GET /JSPDemo/Login.html HTTP/1.1" 304 -
0:0:0:0:0:0:0:1 - - [22/Feb/2020:18:23:25 +0530] "GET /JSPDemo/Login.css HTTP/1.1" 200 709
0:0:0:0:0:0:0:1 - - [22/Feb/2020:18:24:15 +0530] "GET /JSPDemo/Login.html HTTP/1.1" 200 684
0:0:0:0:0:0:0:1 - - [22/Feb/2020:18:24:15 +0530] "GET /JSPDemo/Login.css HTTP/1.1" 304 -
0:0:0:0:0:0:0:1 - - [22/Feb/2020:18:24:35 +0530] "GET /JSPDemo/Login.html HTTP/1.1" 304 -
0:0:0:0:0:0:0:1 - - [22/Feb/2020:18:24:35 +0530] "GET /JSPDemo/Login.css HTTP/1.1" 200 708
0:0:0:0:0:0:0:1 - - [22/Feb/2020:18:25:20 +0530] "POST /JSPDemo/Login HTTP/1.1" 200 1002
0:0:0:0:0:0:0:1 - - [22/Feb/2020:18:28:54 +0530] "POST /JSPDemo/Login HTTP/1.1" 200 948
0:0:0:0:0:0:0:1 - - [22/Feb/2020:19:41:31 +0530] "POST /JSPDemo/Login HTTP/1.1" 200 1179
0:0:0:0:0:0:0:1 - - [22/Feb/2020:19:41:31 +0530] "GET /JSPDemo/Login.css HTTP/1.1" 304 -
0:0:0:0:0:0:0:1 - - [22/Feb/2020:19:43:24 +0530] "POST /JSPDemo/Login HTTP/1.1" 200 1182
0:0:0:0:0:0:0:1 - - [22/Feb/2020:19:43:24 +0530] "GET /JSPDemo/Register.css HTTP/1.1" 200 708
0:0:0:0:0:0:0:1 - - [22/Feb/2020:19:44:07 +0530] "POST /JSPDemo/Login HTTP/1.1" 200 1182
0:0:0:0:0:0:0:1 - - [22/Feb/2020:19:44:07 +0530] "GET /JSPDemo/Register.css HTTP/1.1" 200 710
0:0:0:0:0:0:0:1 - - [22/Feb/2020:19:44:34 +0530] "POST /JSPDemo/Login HTTP/1.1" 200 1182
0:0:0:0:0:0:0:1 - - [22/Feb/2020:19:44:34 +0530] "GET /JSPDemo/Register.css HTTP/1.1" 200 708
0:0:0:0:0:0:0:1 - - [22/Feb/2020:19:46:40 +0530] "POST /JSPDemo/Login HTTP/1.1" 200 1227
0:0:0:0:0:0:0:1 - - [22/Feb/2020:19:46:41 +0530] "GET /JSPDemo/Register.css HTTP/1.1" 200 710
0:0:0:0:0:0:0:1 - - [22/Feb/2020:19:47:31 +0530] "POST /JSPDemo/Login HTTP/1.1" 200 1229
0:0:0:0:0:0:0:1 - - [22/Feb/2020:19:47:31 +0530] "GET /JSPDemo/Register.css HTTP/1.1" 304 -
0:0:0:0:0:0:0:1 - - [22/Feb/2020:19:47:36 +0530] "POST /JSPDemo/Login HTTP/1.1" 200 1229
0:0:0:0:0:0:0:1 - - [22/Feb/2020:19:56:04 +0530] "POST /JSPDemo/Login HTTP/1.1" 200 1502
0:0:0:0:0:0:0:1 - - [22/Feb/2020:19:56:04 +0530] "GET /JSPDemo/Register.css HTTP/1.1" 304 -
0:0:0:0:0:0:0:1 - - [22/Feb/2020:19:56:10 +0530] "POST /JSPDemo/Insert HTTP/1.1" 500 1695
0:0:0:0:0:0:0:1 - - [22/Feb/2020:19:56:52 +0530] "POST /JSPDemo/Insert HTTP/1.1" 200 -
0:0:0:0:0:0:0:1 - - [22/Feb/2020:19:57:38 +0530] "POST /JSPDemo/Login HTTP/1.1" 200 1502
0:0:0:0:0:0:0:1 - - [22/Feb/2020:19:57:38 +0530] "GET /JSPDemo/Register.css HTTP/1.1" 304 -
0:0:0:0:0:0:0:1 - - [22/Feb/2020:19:57:58 +0530] "POST /JSPDemo/Insert HTTP/1.1" 200 28
0:0:0:0:0:0:0:1 - - [22/Feb/2020:19:58:31 +0530] "POST /JSPDemo/Insert HTTP/1.1" 200 -
0:0:0:0:0:0:0:1 - - [22/Feb/2020:19:58:38 +0530] "POST /JSPDemo/Login HTTP/1.1" 200 1515
0:0:0:0:0:0:0:1 - - [22/Feb/2020:19:58:59 +0530] "POST /JSPDemo/Login HTTP/1.1" 200 1517
0:0:0:0:0:0:0:1 - - [22/Feb/2020:19:58:59 +0530] "GET /JSPDemo/Register.css HTTP/1.1" 304 -
0:0:0:0:0:0:0:1 - - [22/Feb/2020:19:59:26 +0530] "POST /JSPDemo/Insert HTTP/1.1" 200 28
0:0:0:0:0:0:0:1 - - [22/Feb/2020:20:00:31 +0530] "POST /JSPDemo/Login HTTP/1.1" 200 1517
0:0:0:0:0:0:0:1 - - [22/Feb/2020:20:00:31 +0530] "GET /JSPDemo/Register.css HTTP/1.1" 304 -
0:0:0:0:0:0:0:1 - - [22/Feb/2020:20:00:35 +0530] "POST /JSPDemo/Login HTTP/1.1" 200 1517
0:0:0:0:0:0:0:1 - - [22/Feb/2020:20:03:06 +0530] "POST /JSPDemo/Login HTTP/1.1" 200 1521
0:0:0:0:0:0:0:1 - - [22/Feb/2020:20:03:06 +0530] "GET /JSPDemo/Register.css HTTP/1.1" 304 -
0:0:0:0:0:0:0:1 - - [22/Feb/2020:20:03:10 +0530] "POST /JSPDemo/Insert HTTP/1.1" 500 1695
0:0:0:0:0:0:0:1 - - [22/Feb/2020:20:03:23 +0530] "POST /JSPDemo/Login HTTP/1.1" 200 1504
0:0:0:0:0:0:0:1 - - [22/Feb/2020:20:03:25 +0530] "POST /JSPDemo/Insert HTTP/1.1" 500 1695
0:0:0:0:0:0:0:1 - - [22/Feb/2020:20:03:40 +0530] "POST /JSPDemo/Login HTTP/1.1" 200 1502
0:0:0:0:0:0:0:1 - - [22/Feb/2020:20:03:45 +0530] "POST /JSPDemo/Insert HTTP/1.1" 500 1695
0:0:0:0:0:0:0:1 - - [22/Feb/2020:20:04:06 +0530] "POST /JSPDemo/Login HTTP/1.1" 200 1503
0:0:0:0:0:0:0:1 - - [22/Feb/2020:20:04:07 +0530] "POST /JSPDemo/Insert HTTP/1.1" 500 1695
0:0:0:0:0:0:0:1 - - [22/Feb/2020:20:58:25 +0530] "POST /JSPDemo/Login HTTP/1.1" 200 1832
0:0:0:0:0:0:0:1 - - [22/Feb/2020:20:58:25 +0530] "GET /JSPDemo/Register.css HTTP/1.1" 304 -
0:0:0:0:0:0:0:1 - - [22/Feb/2020:20:58:46 +0530] "POST /JSPDemo/Insert HTTP/1.1" 200 -
0:0:0:0:0:0:0:1 - - [22/Feb/2020:20:59:59 +0530] "POST /JSPDemo/Login HTTP/1.1" 200 1849
0:0:0:0:0:0:0:1 - - [22/Feb/2020:21:01:12 +0530] "POST /JSPDemo/Login HTTP/1.1" 200 1840
0:0:0:0:0:0:0:1 - - [22/Feb/2020:21:01:12 +0530] "GET /JSPDemo/HomePage.css HTTP/1.1" 200 710
0:0:0:0:0:0:0:1 - - [22/Feb/2020:21:01:32 +0530] "POST /JSPDemo/Login HTTP/1.1" 200 1840
0:0:0:0:0:0:0:1 - - [22/Feb/2020:21:01:37 +0530] "POST /JSPDemo/Login HTTP/1.1" 200 1840
0:0:0:0:0:0:0:1 - - [22/Feb/2020:21:01:51 +0530] "POST /JSPDemo/Login HTTP/1.1" 200 1840
0:0:0:0:0:0:0:1 - - [22/Feb/2020:21:01:55 +0530] "POST /JSPDemo/Login HTTP/1.1" 200 1840
0:0:0:0:0:0:0:1 - - [22/Feb/2020:21:02:01 +0530] "GET /JSPDemo/Login HTTP/1.1" 200 19
0:0:0:0:0:0:0:1 - - [22/Feb/2020:21:02:04 +0530] "GET /JSPDemo/Login.html HTTP/1.1" 304 -
0:0:0:0:0:0:0:1 - - [22/Feb/2020:21:02:04 +0530] "GET /JSPDemo/Login.css HTTP/1.1" 304 -
0:0:0:0:0:0:0:1 - - [22/Feb/2020:21:02:05 +0530] "GET /JSPDemo/Login.html HTTP/1.1" 304 -
0:0:0:0:0:0:0:1 - - [22/Feb/2020:21:02:13 +0530] "POST /JSPDemo/Login HTTP/1.1" 200 1841
0:0:0:0:0:0:0:1 - - [22/Feb/2020:21:03:12 +0530] "POST /JSPDemo/Login HTTP/1.1" 200 1842
0:0:0:0:0:0:0:1 - - [22/Feb/2020:21:03:23 +0530] "GET /JSPDemo/Login HTTP/1.1" 200 19
0:0:0:0:0:0:0:1 - - [22/Feb/2020:21:03:25 +0530] "GET /JSPDemo/Login.html HTTP/1.1" 304 -
0:0:0:0:0:0:0:1 - - [22/Feb/2020:21:03:40 +0530] "POST /JSPDemo/Login HTTP/1.1" 200 1842
0:0:0:0:0:0:0:1 - - [22/Feb/2020:21:04:10 +0530] "POST /JSPDemo/Insert HTTP/1.1" 200 -
0:0:0:0:0:0:0:1 - - [22/Feb/2020:21:05:08 +0530] "POST /JSPDemo/Login HTTP/1.1" 200 1860
0:0:0:0:0:0:0:1 - - [22/Feb/2020:21:05:34 +0530] "POST /JSPDemo/Insert HTTP/1.1" 200 -
0:0:0:0:0:0:0:1 - - [22/Feb/2020:21:06:20 +0530] "POST /JSPDemo/Login HTTP/1.1" 200 1861
0:0:0:0:0:0:0:1 - - [22/Feb/2020:21:06:39 +0530] "POST /JSPDemo/Insert HTTP/1.1" 200 -
0:0:0:0:0:0:0:1 - - [22/Feb/2020:21:07:04 +0530] "GET /JSPDemo/Login HTTP/1.1" 200 19
0:0:0:0:0:0:0:1 - - [22/Feb/2020:21:07:07 +0530] "GET /JSPDemo/Login.html HTTP/1.1" 304 -
0:0:0:0:0:0:0:1 - - [22/Feb/2020:21:07:21 +0530] "POST /JSPDemo/Login HTTP/1.1" 200 1844
0:0:0:0:0:0:0:1 - - [22/Feb/2020:21:07:54 +0530] "POST /JSPDemo/Insert HTTP/1.1" 200 -
0:0:0:0:0:0:0:1 - - [22/Feb/2020:21:24:01 +0530] "POST /JSPDemo/Login HTTP/1.1" 200 1879
0:0:0:0:0:0:0:1 - - [22/Feb/2020:21:24:01 +0530] "GET /JSPDemo/HomePage.css HTTP/1.1" 200 710
0:0:0:0:0:0:0:1 - - [22/Feb/2020:21:24:15 +0530] "POST /JSPDemo/Login HTTP/1.1" 200 1879
0:0:0:0:0:0:0:1 - - [22/Feb/2020:21:24:22 +0530] "POST /JSPDemo/Login HTTP/1.1" 200 1879
0:0:0:0:0:0:0:1 - - [22/Feb/2020:21:24:28 +0530] "GET /JSPDemo/Login.html HTTP/1.1" 304 -
0:0:0:0:0:0:0:1 - - [22/Feb/2020:21:24:28 +0530] "GET /JSPDemo/Login.css HTTP/1.1" 304 -
0:0:0:0:0:0:0:1 - - [22/Feb/2020:21:24:29 +0530] "GET /JSPDemo/Login.html HTTP/1.1" 304 -
0:0:0:0:0:0:0:1 - - [22/Feb/2020:21:24:30 +0530] "GET /JSPDemo/Login.html HTTP/1.1" 304 -
0:0:0:0:0:0:0:1 - - [22/Feb/2020:21:24:37 +0530] "POST /JSPDemo/Login HTTP/1.1" 200 1878
127.0.0.1 - - [22/Feb/2020:21:25:00 +0530] "GET / HTTP/1.1" 404 1074
0:0:0:0:0:0:0:1 - - [22/Feb/2020:21:25:01 +0530] "GET /JSPDemo/HomePage.jsp HTTP/1.1" 200 1871
0:0:0:0:0:0:0:1 - - [22/Feb/2020:21:25:01 +0530] "GET /JSPDemo/HomePage.css HTTP/1.1" 200 710
0:0:0:0:0:0:0:1 - - [22/Feb/2020:21:25:11 +0530] "GET /JSPDemo/HomePage.jsp HTTP/1.1" 200 1878
0:0:0:0:0:0:0:1 - - [22/Feb/2020:21:25:19 +0530] "GET /JSPDemo/HomePage.jsp HTTP/1.1" 200 1878
0:0:0:0:0:0:0:1 - - [22/Feb/2020:21:25:36 +0530] "GET /JSPDemo/HomePage.jsp HTTP/1.1" 200 1871
0:0:0:0:0:0:0:1 - - [22/Feb/2020:21:25:36 +0530] "GET /JSPDemo/HomePage.css HTTP/1.1" 200 710
0:0:0:0:0:0:0:1 - - [22/Feb/2020:21:25:37 +0530] "GET /JSPDemo/HomePage.jsp HTTP/1.1" 200 1871
0:0:0:0:0:0:0:1 - - [22/Feb/2020:21:25:37 +0530] "GET /JSPDemo/HomePage.css HTTP/1.1" 304 -
0:0:0:0:0:0:0:1 - - [22/Feb/2020:21:25:45 +0530] "GET /JSPDemo/HomePage.jsp HTTP/1.1" 200 1878
0:0:0:0:0:0:0:1 - - [22/Feb/2020:21:26:05 +0530] "GET /JSPDemo/HomePage.jsp HTTP/1.1" 200 1878
0:0:0:0:0:0:0:1 - - [22/Feb/2020:21:26:40 +0530] "GET /JSPDemo/HomePage.jsp HTTP/1.1" 200 1871
0:0:0:0:0:0:0:1 - - [22/Feb/2020:21:26:40 +0530] "GET /JSPDemo/HomePage.css HTTP/1.1" 304 -
0:0:0:0:0:0:0:1 - - [22/Feb/2020:21:27:08 +0530] "POST /JSPDemo/Insert HTTP/1.1" 200 -
0:0:0:0:0:0:0:1 - - [22/Feb/2020:21:32:23 +0530] "POST /JSPDemo/Insert HTTP/1.1" 200 -
0:0:0:0:0:0:0:1 - - [22/Feb/2020:21:33:41 +0530] "GET /JSPDemo/HomePage.jsp HTTP/1.1" 200 1867
0:0:0:0:0:0:0:1 - - [22/Feb/2020:21:34:40 +0530] "GET /JSPDemo/HomePage.jsp HTTP/1.1" 200 1876
0:0:0:0:0:0:0:1 - - [22/Feb/2020:21:34:40 +0530] "GET /JSPDemo/HomePage.css HTTP/1.1" 304 -
0:0:0:0:0:0:0:1 - - [22/Feb/2020:21:34:58 +0530] "POST /JSPDemo/Insert HTTP/1.1" 200 -
0:0:0:0:0:0:0:1 - - [22/Feb/2020:21:38:17 +0530] "GET /JSPDemo/HomePage.jsp HTTP/1.1" 200 2144
0:0:0:0:0:0:0:1 - - [22/Feb/2020:21:38:17 +0530] "GET /JSPDemo/HomePage.css HTTP/1.1" 304 -
0:0:0:0:0:0:0:1 - - [22/Feb/2020:21:38:18 +0530] "GET /JSPDemo/HomePage.jsp HTTP/1.1" 200 2144
0:0:0:0:0:0:0:1 - - [22/Feb/2020:21:38:18 +0530] "GET /JSPDemo/HomePage.css HTTP/1.1" 304 -
0:0:0:0:0:0:0:1 - - [22/Feb/2020:21:38:19 +0530] "GET /JSPDemo/HomePage.jsp HTTP/1.1" 200 2144
0:0:0:0:0:0:0:1 - - [22/Feb/2020:21:38:19 +0530] "GET /JSPDemo/HomePage.css HTTP/1.1" 304 -
0:0:0:0:0:0:0:1 - - [22/Feb/2020:21:38:19 +0530] "GET /JSPDemo/HomePage.jsp HTTP/1.1" 200 2144
0:0:0:0:0:0:0:1 - - [22/Feb/2020:21:38:19 +0530] "GET /JSPDemo/HomePage.css HTTP/1.1" 304 -
0:0:0:0:0:0:0:1 - - [22/Feb/2020:21:38:19 +0530] "GET /JSPDemo/HomePage.jsp HTTP/1.1" 200 2144
0:0:0:0:0:0:0:1 - - [22/Feb/2020:21:38:19 +0530] "GET /JSPDemo/HomePage.css HTTP/1.1" 304 -
0:0:0:0:0:0:0:1 - - [22/Feb/2020:21:38:19 +0530] "GET /JSPDemo/HomePage.jsp HTTP/1.1" 200 2144
0:0:0:0:0:0:0:1 - - [22/Feb/2020:21:38:19 +0530] "GET /JSPDemo/HomePage.css HTTP/1.1" 304 -
0:0:0:0:0:0:0:1 - - [22/Feb/2020:21:38:20 +0530] "GET /JSPDemo/HomePage.jsp HTTP/1.1" 200 2144
0:0:0:0:0:0:0:1 - - [22/Feb/2020:21:38:20 +0530] "GET /JSPDemo/HomePage.css HTTP/1.1" 304 -
0:0:0:0:0:0:0:1 - - [22/Feb/2020:21:39:26 +0530] "POST /JSPDemo/Insert HTTP/1.1" 200 -
0:0:0:0:0:0:0:1 - - [22/Feb/2020:21:39:31 +0530] "POST /JSPDemo/Insert HTTP/1.1" 200 -
0:0:0:0:0:0:0:1 - - [22/Feb/2020:21:39:49 +0530] "POST /JSPDemo/Insert HTTP/1.1" 200 -
0:0:0:0:0:0:0:1 - - [22/Feb/2020:21:46:35 +0530] "GET /JSPDemo/HomePage.jsp HTTP/1.1" 200 2151
0:0:0:0:0:0:0:1 - - [22/Feb/2020:21:46:35 +0530] "GET /JSPDemo/HomePage.css HTTP/1.1" 304 -
0:0:0:0:0:0:0:1 - - [22/Feb/2020:21:46:35 +0530] "GET /JSPDemo/HomePage.jsp HTTP/1.1" 200 2151
0:0:0:0:0:0:0:1 - - [22/Feb/2020:21:46:35 +0530] "GET /JSPDemo/HomePage.css HTTP/1.1" 304 -
0:0:0:0:0:0:0:1 - - [22/Feb/2020:21:46:36 +0530] "GET /JSPDemo/HomePage.jsp HTTP/1.1" 200 2151
0:0:0:0:0:0:0:1 - - [22/Feb/2020:21:46:36 +0530] "GET /JSPDemo/HomePage.css HTTP/1.1" 304 -
0:0:0:0:0:0:0:1 - - [22/Feb/2020:21:46:36 +0530] "GET /JSPDemo/HomePage.jsp HTTP/1.1" 200 2151
0:0:0:0:0:0:0:1 - - [22/Feb/2020:21:46:36 +0530] "GET /JSPDemo/HomePage.css HTTP/1.1" 304 -
0:0:0:0:0:0:0:1 - - [22/Feb/2020:21:46:37 +0530] "GET /JSPDemo/HomePage.jsp HTTP/1.1" 200 2151
0:0:0:0:0:0:0:1 - - [22/Feb/2020:21:46:37 +0530] "GET /JSPDemo/HomePage.css HTTP/1.1" 304 -
0:0:0:0:0:0:0:1 - - [22/Feb/2020:21:46:37 +0530] "GET /JSPDemo/HomePage.jsp HTTP/1.1" 200 2151
0:0:0:0:0:0:0:1 - - [22/Feb/2020:21:46:37 +0530] "GET /JSPDemo/HomePage.css HTTP/1.1" 304 -
0:0:0:0:0:0:0:1 - - [22/Feb/2020:21:46:37 +0530] "GET /JSPDemo/HomePage.jsp HTTP/1.1" 200 2151
0:0:0:0:0:0:0:1 - - [22/Feb/2020:21:46:37 +0530] "GET /JSPDemo/HomePage.css HTTP/1.1" 304 -
0:0:0:0:0:0:0:1 - - [22/Feb/2020:21:46:37 +0530] "GET /JSPDemo/HomePage.jsp HTTP/1.1" 200 2151
0:0:0:0:0:0:0:1 - - [22/Feb/2020:21:46:37 +0530] "GET /JSPDemo/HomePage.css HTTP/1.1" 304 -
0:0:0:0:0:0:0:1 - - [22/Feb/2020:21:46:37 +0530] "GET /JSPDemo/HomePage.jsp HTTP/1.1" 200 2151
0:0:0:0:0:0:0:1 - - [22/Feb/2020:21:46:37 +0530] "GET /JSPDemo/HomePage.css HTTP/1.1" 304 -
0:0:0:0:0:0:0:1 - - [22/Feb/2020:21:46:38 +0530] "GET /JSPDemo/HomePage.jsp HTTP/1.1" 200 2151
0:0:0:0:0:0:0:1 - - [22/Feb/2020:21:46:38 +0530] "GET /JSPDemo/HomePage.css HTTP/1.1" 304 -
0:0:0:0:0:0:0:1 - - [22/Feb/2020:21:46:38 +0530] "GET /JSPDemo/HomePage.jsp HTTP/1.1" 200 2151
0:0:0:0:0:0:0:1 - - [22/Feb/2020:21:46:38 +0530] "GET /JSPDemo/HomePage.css HTTP/1.1" 304 -
0:0:0:0:0:0:0:1 - - [22/Feb/2020:21:46:38 +0530] "GET /JSPDemo/HomePage.jsp HTTP/1.1" 200 2151
0:0:0:0:0:0:0:1 - - [22/Feb/2020:21:46:38 +0530] "GET /JSPDemo/HomePage.css HTTP/1.1" 304 -
0:0:0:0:0:0:0:1 - - [22/Feb/2020:21:46:38 +0530] "GET /JSPDemo/HomePage.jsp HTTP/1.1" 200 2151
0:0:0:0:0:0:0:1 - - [22/Feb/2020:21:46:38 +0530] "GET /JSPDemo/HomePage.css HTTP/1.1" 304 -
0:0:0:0:0:0:0:1 - - [22/Feb/2020:21:46:38 +0530] "GET /JSPDemo/HomePage.jsp HTTP/1.1" 200 2151
0:0:0:0:0:0:0:1 - - [22/Feb/2020:21:46:38 +0530] "GET /JSPDemo/HomePage.css HTTP/1.1" 304 -
0:0:0:0:0:0:0:1 - - [22/Feb/2020:21:46:39 +0530] "GET /JSPDemo/HomePage.jsp HTTP/1.1" 200 2151
0:0:0:0:0:0:0:1 - - [22/Feb/2020:21:46:39 +0530] "GET /JSPDemo/HomePage.css HTTP/1.1" 304 -
0:0:0:0:0:0:0:1 - - [22/Feb/2020:21:46:39 +0530] "GET /JSPDemo/HomePage.jsp HTTP/1.1" 200 2151
0:0:0:0:0:0:0:1 - - [22/Feb/2020:21:46:39 +0530] "GET /JSPDemo/HomePage.css HTTP/1.1" 304 -
0:0:0:0:0:0:0:1 - - [22/Feb/2020:21:46:39 +0530] "GET /JSPDemo/HomePage.jsp HTTP/1.1" 200 2151
0:0:0:0:0:0:0:1 - - [22/Feb/2020:21:46:39 +0530] "GET /JSPDemo/HomePage.css HTTP/1.1" 304 -
0:0:0:0:0:0:0:1 - - [22/Feb/2020:21:46:39 +0530] "GET /JSPDemo/HomePage.jsp HTTP/1.1" 200 2151
0:0:0:0:0:0:0:1 - - [22/Feb/2020:21:46:39 +0530] "GET /JSPDemo/HomePage.css HTTP/1.1" 304 -
0:0:0:0:0:0:0:1 - - [22/Feb/2020:21:46:39 +0530] "GET /JSPDemo/HomePage.jsp HTTP/1.1" 200 2151
0:0:0:0:0:0:0:1 - - [22/Feb/2020:21:46:39 +0530] "GET /JSPDemo/HomePage.css HTTP/1.1" 304 -
0:0:0:0:0:0:0:1 - - [22/Feb/2020:21:46:40 +0530] "GET /JSPDemo/HomePage.jsp HTTP/1.1" 200 2151
0:0:0:0:0:0:0:1 - - [22/Feb/2020:21:46:40 +0530] "GET /JSPDemo/HomePage.css HTTP/1.1" 304 -
0:0:0:0:0:0:0:1 - - [22/Feb/2020:21:46:40 +0530] "GET /JSPDemo/HomePage.jsp HTTP/1.1" 200 2151
0:0:0:0:0:0:0:1 - - [22/Feb/2020:21:46:40 +0530] "GET /JSPDemo/HomePage.css HTTP/1.1" 304 -
0:0:0:0:0:0:0:1 - - [22/Feb/2020:21:46:40 +0530] "GET /JSPDemo/HomePage.jsp HTTP/1.1" 200 2151
0:0:0:0:0:0:0:1 - - [22/Feb/2020:21:46:40 +0530] "GET /JSPDemo/HomePage.css HTTP/1.1" 304 -
0:0:0:0:0:0:0:1 - - [22/Feb/2020:21:46:40 +0530] "GET /JSPDemo/HomePage.jsp HTTP/1.1" 200 2151
0:0:0:0:0:0:0:1 - - [22/Feb/2020:21:46:40 +0530] "GET /JSPDemo/HomePage.css HTTP/1.1" 304 -
0:0:0:0:0:0:0:1 - - [22/Feb/2020:21:46:40 +0530] "GET /JSPDemo/HomePage.jsp HTTP/1.1" 200 2151
0:0:0:0:0:0:0:1 - - [22/Feb/2020:21:46:40 +0530] "GET /JSPDemo/HomePage.css HTTP/1.1" 304 -
0:0:0:0:0:0:0:1 - - [22/Feb/2020:21:46:41 +0530] "GET /JSPDemo/HomePage.jsp HTTP/1.1" 200 2151
0:0:0:0:0:0:0:1 - - [22/Feb/2020:21:46:41 +0530] "GET /JSPDemo/HomePage.css HTTP/1.1" 304 -
0:0:0:0:0:0:0:1 - - [22/Feb/2020:21:46:41 +0530] "GET /JSPDemo/HomePage.jsp HTTP/1.1" 200 2151
0:0:0:0:0:0:0:1 - - [22/Feb/2020:21:46:41 +0530] "GET /JSPDemo/HomePage.css HTTP/1.1" 304 -
0:0:0:0:0:0:0:1 - - [22/Feb/2020:21:46:41 +0530] "GET /JSPDemo/HomePage.jsp HTTP/1.1" 200 2151
0:0:0:0:0:0:0:1 - - [22/Feb/2020:21:46:41 +0530] "GET /JSPDemo/HomePage.css HTTP/1.1" 304 -
0:0:0:0:0:0:0:1 - - [22/Feb/2020:22:00:05 +0530] "GET /JSPDemo/Add.jsp HTTP/1.1" 200 739
0:0:0:0:0:0:0:1 - - [22/Feb/2020:22:00:13 +0530] "GET /JSPDemo/Add.jsp?n1=10&n2=20 HTTP/1.1" 200 739
0:0:0:0:0:0:0:1 - - [22/Feb/2020:22:00:27 +0530] "GET /JSPDemo/Add.jsp?n1=10&n2=20 HTTP/1.1" 200 739
0:0:0:0:0:0:0:1 - - [22/Feb/2020:22:00:55 +0530] "GET /JSPDemo/Add.jsp HTTP/1.1" 200 739
0:0:0:0:0:0:0:1 - - [22/Feb/2020:22:01:03 +0530] "GET /JSPDemo/Add.jsp?n1=10&n2=20 HTTP/1.1" 200 739
0:0:0:0:0:0:0:1 - - [22/Feb/2020:22:01:08 +0530] "GET /JSPDemo/Add.jsp HTTP/1.1" 200 739
0:0:0:0:0:0:0:1 - - [22/Feb/2020:22:01:47 +0530] "GET /JSPDemo/Add.jsp HTTP/1.1" 200 738
0:0:0:0:0:0:0:1 - - [22/Feb/2020:22:01:48 +0530] "GET /JSPDemo/Add.jsp HTTP/1.1" 200 738
0:0:0:0:0:0:0:1 - - [22/Feb/2020:22:01:56 +0530] "GET /JSPDemo/Add.jsp?n1=10&n2=20 HTTP/1.1" 200 738
0:0:0:0:0:0:0:1 - - [22/Feb/2020:22:19:48 +0530] "GET /JSPDemo/HomePage.jsp HTTP/1.1" 200 2370
0:0:0:0:0:0:0:1 - - [22/Feb/2020:22:19:48 +0530] "GET /JSPDemo/HomePage.css HTTP/1.1" 200 710
0:0:0:0:0:0:0:1 - - [22/Feb/2020:22:21:23 +0530] "POST /JSPDemo/Insert HTTP/1.1" 200 -
0:0:0:0:0:0:0:1 - - [22/Feb/2020:22:22:06 +0530] "GET /JSPDemo/HomePage.jsp HTTP/1.1" 200 2382
0:0:0:0:0:0:0:1 - - [22/Feb/2020:22:22:22 +0530] "POST /JSPDemo/Insert HTTP/1.1" 200 -
0:0:0:0:0:0:0:1 - - [22/Feb/2020:22:22:35 +0530] "GET /JSPDemo/HomePage.jsp HTTP/1.1" 200 2387
0:0:0:0:0:0:0:1 - - [22/Feb/2020:22:22:35 +0530] "GET /JSPDemo/HomePage.jsp HTTP/1.1" 200 2387
0:0:0:0:0:0:0:1 - - [22/Feb/2020:22:22:36 +0530] "GET /JSPDemo/HomePage.jsp HTTP/1.1" 200 2387
0:0:0:0:0:0:0:1 - - [22/Feb/2020:22:22:53 +0530] "POST /JSPDemo/Insert HTTP/1.1" 200 -
0:0:0:0:0:0:0:1 - - [22/Feb/2020:22:23:09 +0530] "GET /JSPDemo/HomePage.jsp HTTP/1.1" 200 2388
0:0:0:0:0:0:0:1 - - [22/Feb/2020:22:23:10 +0530] "GET /JSPDemo/HomePage.jsp HTTP/1.1" 200 2388
0:0:0:0:0:0:0:1 - - [22/Feb/2020:22:23:10 +0530] "GET /JSPDemo/HomePage.jsp HTTP/1.1" 200 2388
0:0:0:0:0:0:0:1 - - [22/Feb/2020:22:23:10 +0530] "GET /JSPDemo/HomePage.jsp HTTP/1.1" 200 2388
0:0:0:0:0:0:0:1 - - [22/Feb/2020:22:23:49 +0530] "GET /JSPDemo/HomePage.jsp HTTP/1.1" 200 2388
0:0:0:0:0:0:0:1 - - [22/Feb/2020:22:23:51 +0530] "GET /JSPDemo/HomePage.jsp HTTP/1.1" 200 2388
0:0:0:0:0:0:0:1 - - [22/Feb/2020:22:23:51 +0530] "GET /JSPDemo/HomePage.jsp HTTP/1.1" 200 2388
0:0:0:0:0:0:0:1 - - [22/Feb/2020:22:23:52 +0530] "GET /JSPDemo/HomePage.jsp HTTP/1.1" 200 2388
0:0:0:0:0:0:0:1 - - [22/Feb/2020:22:23:52 +0530] "GET /JSPDemo/HomePage.jsp HTTP/1.1" 200 2388
0:0:0:0:0:0:0:1 - - [22/Feb/2020:22:23:52 +0530] "GET /JSPDemo/HomePage.jsp HTTP/1.1" 200 2388
0:0:0:0:0:0:0:1 - - [22/Feb/2020:22:23:52 +0530] "GET /JSPDemo/HomePage.jsp HTTP/1.1" 200 2388
0:0:0:0:0:0:0:1 - - [22/Feb/2020:22:23:52 +0530] "GET /JSPDemo/HomePage.jsp HTTP/1.1" 200 2388
0:0:0:0:0:0:0:1 - - [22/Feb/2020:22:23:52 +0530] "GET /JSPDemo/HomePage.jsp HTTP/1.1" 200 2388
0:0:0:0:0:0:0:1 - - [22/Feb/2020:22:23:53 +0530] "GET /JSPDemo/HomePage.jsp HTTP/1.1" 200 2388
0:0:0:0:0:0:0:1 - - [22/Feb/2020:22:23:53 +0530] "GET /JSPDemo/HomePage.jsp HTTP/1.1" 200 2388
0:0:0:0:0:0:0:1 - - [22/Feb/2020:22:23:53 +0530] "GET /JSPDemo/HomePage.jsp HTTP/1.1" 200 2388
0:0:0:0:0:0:0:1 - - [22/Feb/2020:22:23:53 +0530] "GET /JSPDemo/HomePage.jsp HTTP/1.1" 200 2388
0:0:0:0:0:0:0:1 - - [22/Feb/2020:22:23:53 +0530] "GET /JSPDemo/HomePage.jsp HTTP/1.1" 200 2388
0:0:0:0:0:0:0:1 - - [22/Feb/2020:22:23:54 +0530] "GET /JSPDemo/HomePage.jsp HTTP/1.1" 200 2388
0:0:0:0:0:0:0:1 - - [22/Feb/2020:22:25:38 +0530] "GET /JSPDemo/HomePage.jsp HTTP/1.1" 200 2388
0:0:0:0:0:0:0:1 - - [22/Feb/2020:22:25:38 +0530] "GET /JSPDemo/HomePage.css HTTP/1.1" 200 710
0:0:0:0:0:0:0:1 - - [22/Feb/2020:22:26:05 +0530] "GET /JSPDemo/HomePage.jsp HTTP/1.1" 200 2388
0:0:0:0:0:0:0:1 - - [22/Feb/2020:22:26:05 +0530] "GET /JSPDemo/HomePage.css HTTP/1.1" 200 710
0:0:0:0:0:0:0:1 - - [22/Feb/2020:22:26:16 +0530] "GET /JSPDemo/HomePage.jsp HTTP/1.1" 200 2388
0:0:0:0:0:0:0:1 - - [22/Feb/2020:22:26:16 +0530] "GET /JSPDemo/HomePage.css HTTP/1.1" 200 710
0:0:0:0:0:0:0:1 - - [22/Feb/2020:22:32:57 +0530] "GET /JSPDemo/HomePage.jsp HTTP/1.1" 200 2598
0:0:0:0:0:0:0:1 - - [22/Feb/2020:22:32:57 +0530] "GET /JSPDemo/HomePage.css HTTP/1.1" 304 -
0:0:0:0:0:0:0:1 - - [22/Feb/2020:22:33:11 +0530] "POST /JSPDemo/Insert HTTP/1.1" 200 -
0:0:0:0:0:0:0:1 - - [22/Feb/2020:22:34:58 +0530] "GET /JSPDemo/HomePage.jsp HTTP/1.1" 200 2617
0:0:0:0:0:0:0:1 - - [22/Feb/2020:22:34:58 +0530] "GET /JSPDemo/HomePage.css HTTP/1.1" 304 -
0:0:0:0:0:0:0:1 - - [22/Feb/2020:22:34:58 +0530] "GET /JSPDemo/HomePage.jsp HTTP/1.1" 200 2617
0:0:0:0:0:0:0:1 - - [22/Feb/2020:22:34:58 +0530] "GET /JSPDemo/HomePage.jsp HTTP/1.1" 200 2617
0:0:0:0:0:0:0:1 - - [22/Feb/2020:22:34:58 +0530] "GET /JSPDemo/HomePage.jsp HTTP/1.1" 200 2617
0:0:0:0:0:0:0:1 - - [22/Feb/2020:22:34:59 +0530] "GET /JSPDemo/HomePage.jsp HTTP/1.1" 200 2617
0:0:0:0:0:0:0:1 - - [22/Feb/2020:22:34:59 +0530] "GET /JSPDemo/HomePage.jsp HTTP/1.1" 200 2617
0:0:0:0:0:0:0:1 - - [22/Feb/2020:22:43:48 +0530] "GET /JSPDemo/HomePage.jsp HTTP/1.1" 200 2998
0:0:0:0:0:0:0:1 - - [22/Feb/2020:22:43:48 +0530] "GET /JSPDemo/HomePage.css HTTP/1.1" 304 -
0:0:0:0:0:0:0:1 - - [22/Feb/2020:22:44:10 +0530] "POST /JSPDemo/Insert HTTP/1.1" 200 -
0:0:0:0:0:0:0:1 - - [22/Feb/2020:22:44:59 +0530] "GET /JSPDemo/HomePage.jsp HTTP/1.1" 200 2998
0:0:0:0:0:0:0:1 - - [22/Feb/2020:22:45:07 +0530] "GET /JSPDemo/HomePage.jsp HTTP/1.1" 200 2998
0:0:0:0:0:0:0:1 - - [22/Feb/2020:22:45:25 +0530] "POST /JSPDemo/Insert HTTP/1.1" 200 -
0:0:0:0:0:0:0:1 - - [22/Feb/2020:22:46:29 +0530] "GET /JSPDemo/HomePage.jsp HTTP/1.1" 200 3005
0:0:0:0:0:0:0:1 - - [22/Feb/2020:22:46:29 +0530] "GET /JSPDemo/HomePage.css HTTP/1.1" 304 -
0:0:0:0:0:0:0:1 - - [22/Feb/2020:22:46:30 +0530] "GET /JSPDemo/HomePage.jsp HTTP/1.1" 200 3005
0:0:0:0:0:0:0:1 - - [22/Feb/2020:22:46:31 +0530] "GET /JSPDemo/HomePage.jsp HTTP/1.1" 200 3005
0:0:0:0:0:0:0:1 - - [22/Feb/2020:22:46:31 +0530] "GET /JSPDemo/HomePage.jsp HTTP/1.1" 200 3005
0:0:0:0:0:0:0:1 - - [22/Feb/2020:22:46:31 +0530] "GET /JSPDemo/HomePage.jsp HTTP/1.1" 200 3005
0:0:0:0:0:0:0:1 - - [22/Feb/2020:22:46:31 +0530] "GET /JSPDemo/HomePage.jsp HTTP/1.1" 200 3005
0:0:0:0:0:0:0:1 - - [22/Feb/2020:22:46:31 +0530] "GET /JSPDemo/HomePage.jsp HTTP/1.1" 200 3005
0:0:0:0:0:0:0:1 - - [22/Feb/2020:22:46:31 +0530] "GET /JSPDemo/HomePage.jsp HTTP/1.1" 200 3005
0:0:0:0:0:0:0:1 - - [22/Feb/2020:22:46:32 +0530] "GET /JSPDemo/HomePage.jsp HTTP/1.1" 200 3005
0:0:0:0:0:0:0:1 - - [22/Feb/2020:22:46:32 +0530] "GET /JSPDemo/HomePage.jsp HTTP/1.1" 200 3005
0:0:0:0:0:0:0:1 - - [22/Feb/2020:22:46:32 +0530] "GET /JSPDemo/HomePage.jsp HTTP/1.1" 200 3005
0:0:0:0:0:0:0:1 - - [22/Feb/2020:22:46:52 +0530] "POST /JSPDemo/Insert HTTP/1.1" 200 -
0:0:0:0:0:0:0:1 - - [22/Feb/2020:22:47:32 +0530] "GET /JSPDemo/HomePage.jsp HTTP/1.1" 200 3028
0:0:0:0:0:0:0:1 - - [22/Feb/2020:22:47:33 +0530] "GET /JSPDemo/HomePage.jsp HTTP/1.1" 200 3028
0:0:0:0:0:0:0:1 - - [22/Feb/2020:22:47:33 +0530] "GET /JSPDemo/HomePage.jsp HTTP/1.1" 200 3028
0:0:0:0:0:0:0:1 - - [22/Feb/2020:22:47:33 +0530] "GET /JSPDemo/HomePage.jsp HTTP/1.1" 200 3028
0:0:0:0:0:0:0:1 - - [22/Feb/2020:22:47:34 +0530] "GET /JSPDemo/HomePage.jsp HTTP/1.1" 200 3028
0:0:0:0:0:0:0:1 - - [22/Feb/2020:22:47:53 +0530] "POST /JSPDemo/Insert HTTP/1.1" 200 -
0:0:0:0:0:0:0:1 - - [22/Feb/2020:22:49:29 +0530] "GET /JSPDemo/HomePage.jsp HTTP/1.1" 200 3030
0:0:0:0:0:0:0:1 - - [22/Feb/2020:22:49:29 +0530] "GET /JSPDemo/HomePage.css HTTP/1.1" 304 -
0:0:0:0:0:0:0:1 - - [22/Feb/2020:22:49:30 +0530] "GET /JSPDemo/HomePage.jsp HTTP/1.1" 200 3030
0:0:0:0:0:0:0:1 - - [22/Feb/2020:22:49:51 +0530] "POST /JSPDemo/Insert HTTP/1.1" 200 -
0:0:0:0:0:0:0:1 - - [22/Feb/2020:22:50:42 +0530] "GET /JSPDemo/HomePage.jsp HTTP/1.1" 200 3051
0:0:0:0:0:0:0:1 - - [22/Feb/2020:22:51:30 +0530] "GET /JSPDemo/HomePage.jsp HTTP/1.1" 200 3051
0:0:0:0:0:0:0:1 - - [22/Feb/2020:22:57:14 +0530] "GET /JSPDemo/HomePage.jsp HTTP/1.1" 200 3300
0:0:0:0:0:0:0:1 - - [22/Feb/2020:22:57:14 +0530] "GET /JSPDemo/HomePage.css HTTP/1.1" 304 -
0:0:0:0:0:0:0:1 - - [22/Feb/2020:22:57:33 +0530] "POST /JSPDemo/Insert HTTP/1.1" 200 -
0:0:0:0:0:0:0:1 - - [22/Feb/2020:22:58:04 +0530] "GET /JSPDemo/HomePage.jsp HTTP/1.1" 200 3301
0:0:0:0:0:0:0:1 - - [22/Feb/2020:22:59:48 +0530] "GET /JSPDemo/HomePage.jsp HTTP/1.1" 200 3301
0:0:0:0:0:0:0:1 - - [22/Feb/2020:23:00:35 +0530] "GET /JSPDemo/HomePage.jsp HTTP/1.1" 200 3300
0:0:0:0:0:0:0:1 - - [22/Feb/2020:23:00:36 +0530] "GET /JSPDemo/HomePage.css HTTP/1.1" 304 -
0:0:0:0:0:0:0:1 - - [22/Feb/2020:23:00:56 +0530] "POST /JSPDemo/Insert HTTP/1.1" 200 28
0:0:0:0:0:0:0:1 - - [22/Feb/2020:23:45:06 +0530] "GET /JSPDemo/HomePage.jsp HTTP/1.1" 200 3300
0:0:0:0:0:0:0:1 - - [22/Feb/2020:23:45:06 +0530] "GET /JSPDemo/HomePage.css HTTP/1.1" 304 -
0:0:0:0:0:0:0:1 - - [22/Feb/2020:23:45:07 +0530] "GET /JSPDemo/HomePage.jsp HTTP/1.1" 200 3300
0:0:0:0:0:0:0:1 - - [22/Feb/2020:23:45:07 +0530] "GET /JSPDemo/HomePage.jsp HTTP/1.1" 200 3300
0:0:0:0:0:0:0:1 - - [22/Feb/2020:23:45:07 +0530] "GET /JSPDemo/HomePage.jsp HTTP/1.1" 200 3300
0:0:0:0:0:0:0:1 - - [22/Feb/2020:23:45:07 +0530] "GET /JSPDemo/HomePage.jsp HTTP/1.1" 200 3300
0:0:0:0:0:0:0:1 - - [22/Feb/2020:23:45:09 +0530] "GET /JSPDemo/HomePage.jsp HTTP/1.1" 200 3300
0:0:0:0:0:0:0:1 - - [22/Feb/2020:23:45:45 +0530] "POST /JSPDemo/Insert HTTP/1.1" 404 1095
0:0:0:0:0:0:0:1 - - [22/Feb/2020:23:46:38 +0530] "GET /JSPDemo/HomePage.jsp HTTP/1.1" 200 3300
0:0:0:0:0:0:0:1 - - [22/Feb/2020:23:46:39 +0530] "GET /JSPDemo/HomePage.jsp HTTP/1.1" 200 3300
0:0:0:0:0:0:0:1 - - [22/Feb/2020:23:46:39 +0530] "GET /JSPDemo/HomePage.jsp HTTP/1.1" 200 3300
0:0:0:0:0:0:0:1 - - [22/Feb/2020:23:46:39 +0530] "GET /JSPDemo/HomePage.jsp HTTP/1.1" 200 3300
0:0:0:0:0:0:0:1 - - [22/Feb/2020:23:46:39 +0530] "GET /JSPDemo/HomePage.jsp HTTP/1.1" 200 3300
0:0:0:0:0:0:0:1 - - [22/Feb/2020:23:47:05 +0530] "POST /JSPDemo/Insert HTTP/1.1" 200 3300
0:0:0:0:0:0:0:1 - - [22/Feb/2020:23:49:01 +0530] "POST /JSPDemo/Insert HTTP/1.1" 200 -
0:0:0:0:0:0:0:1 - - [22/Feb/2020:23:49:22 +0530] "POST /JSPDemo/Insert HTTP/1.1" 200 3308
