127.0.0.1 - - [27/Feb/2020:09:00:00 +0530] "GET / HTTP/1.1" 404 1074
0:0:0:0:0:0:0:1 - - [27/Feb/2020:09:00:04 +0530] "GET /JSP(Project_No-02)/HomePageFrameSet.html HTTP/1.1" 304 -
0:0:0:0:0:0:0:1 - - [27/Feb/2020:09:00:05 +0530] "GET /JSP(Project_No-02)/Header.jsp HTTP/1.1" 200 475
0:0:0:0:0:0:0:1 - - [27/Feb/2020:09:00:09 +0530] "GET /JSP(Project_No-02)/LastSeen HTTP/1.1" 200 595
0:0:0:0:0:0:0:1 - - [27/Feb/2020:09:00:09 +0530] "GET /JSP(Project_No-02)/Footer.html HTTP/1.1" 304 -
0:0:0:0:0:0:0:1 - - [27/Feb/2020:09:00:09 +0530] "GET /JSP(Project_No-02)/Display.jsp HTTP/1.1" 200 1727
0:0:0:0:0:0:0:1 - - [27/Feb/2020:09:00:09 +0530] "GET /JSP(Project_No-02)/Header.css HTTP/1.1" 304 -
0:0:0:0:0:0:0:1 - - [27/Feb/2020:09:00:09 +0530] "GET /JSP(Project_No-02)/Footer.css HTTP/1.1" 304 -
0:0:0:0:0:0:0:1 - - [27/Feb/2020:09:00:09 +0530] "GET /JSP(Project_No-02)/Display.css HTTP/1.1" 304 -
0:0:0:0:0:0:0:1 - - [27/Feb/2020:09:00:53 +0530] "GET /JSP(Project_No-02)/HomePageFrameSet.html HTTP/1.1" 304 -
0:0:0:0:0:0:0:1 - - [27/Feb/2020:09:00:54 +0530] "GET /JSP(Project_No-02)/Header.jsp HTTP/1.1" 200 475
0:0:0:0:0:0:0:1 - - [27/Feb/2020:09:00:54 +0530] "GET /JSP(Project_No-02)/Footer.html HTTP/1.1" 304 -
0:0:0:0:0:0:0:1 - - [27/Feb/2020:09:00:54 +0530] "GET /JSP(Project_No-02)/Header.css HTTP/1.1" 304 -
0:0:0:0:0:0:0:1 - - [27/Feb/2020:09:00:54 +0530] "GET /JSP(Project_No-02)/Footer.css HTTP/1.1" 304 -
0:0:0:0:0:0:0:1 - - [27/Feb/2020:09:00:54 +0530] "GET /JSP(Project_No-02)/LastSeen HTTP/1.1" 200 595
0:0:0:0:0:0:0:1 - - [27/Feb/2020:09:00:54 +0530] "GET /JSP(Project_No-02)/Display.jsp HTTP/1.1" 200 1727
0:0:0:0:0:0:0:1 - - [27/Feb/2020:09:00:54 +0530] "GET /JSP(Project_No-02)/Display.css HTTP/1.1" 304 -
0:0:0:0:0:0:0:1 - - [27/Feb/2020:09:00:54 +0530] "GET /favicon.ico HTTP/1.1" 404 1085
0:0:0:0:0:0:0:1 - - [27/Feb/2020:09:00:59 +0530] "GET /JSP(Project_No-02)/HomePageFrameSet.html HTTP/1.1" 304 -
0:0:0:0:0:0:0:1 - - [27/Feb/2020:09:00:59 +0530] "GET /JSP(Project_No-02)/Header.jsp HTTP/1.1" 200 475
0:0:0:0:0:0:0:1 - - [27/Feb/2020:09:01:00 +0530] "GET /JSP(Project_No-02)/Display.jsp HTTP/1.1" 200 1727
0:0:0:0:0:0:0:1 - - [27/Feb/2020:09:01:00 +0530] "GET /JSP(Project_No-02)/LastSeen HTTP/1.1" 200 595
0:0:0:0:0:0:0:1 - - [27/Feb/2020:09:01:00 +0530] "GET /JSP(Project_No-02)/HomePageFrameSet.html HTTP/1.1" 304 -
0:0:0:0:0:0:0:1 - - [27/Feb/2020:09:01:00 +0530] "GET /JSP(Project_No-02)/Header.jsp HTTP/1.1" 200 475
0:0:0:0:0:0:0:1 - - [27/Feb/2020:09:01:01 +0530] "GET /JSP(Project_No-02)/Display.jsp HTTP/1.1" 200 1727
0:0:0:0:0:0:0:1 - - [27/Feb/2020:09:01:01 +0530] "GET /JSP(Project_No-02)/LastSeen HTTP/1.1" 200 595
0:0:0:0:0:0:0:1 - - [27/Feb/2020:09:01:02 +0530] "GET /JSP(Project_No-02)/HomePageFrameSet.html HTTP/1.1" 304 -
0:0:0:0:0:0:0:1 - - [27/Feb/2020:09:01:02 +0530] "GET /JSP(Project_No-02)/Header.jsp HTTP/1.1" 200 475
0:0:0:0:0:0:0:1 - - [27/Feb/2020:09:01:02 +0530] "GET /JSP(Project_No-02)/Display.jsp HTTP/1.1" 200 1727
0:0:0:0:0:0:0:1 - - [27/Feb/2020:09:01:02 +0530] "GET /JSP(Project_No-02)/LastSeen HTTP/1.1" 200 595
0:0:0:0:0:0:0:1 - - [27/Feb/2020:09:01:25 +0530] "GET /JSP(Project_No-02)/Edit.jsp?id=01 HTTP/1.1" 200 3798
0:0:0:0:0:0:0:1 - - [27/Feb/2020:09:01:25 +0530] "GET /JSP(Project_No-02)/CreatePage.css HTTP/1.1" 304 -
0:0:0:0:0:0:0:1 - - [27/Feb/2020:09:01:35 +0530] "POST /JSP(Project_No-02)/EditServlet HTTP/1.1" 200 3846
0:0:0:0:0:0:0:1 - - [27/Feb/2020:09:01:40 +0530] "GET /JSP(Project_No-02)/Edit.jsp?id=02 HTTP/1.1" 200 3801
0:0:0:0:0:0:0:1 - - [27/Feb/2020:09:01:44 +0530] "POST /JSP(Project_No-02)/EditServlet HTTP/1.1" 200 3849
0:0:0:0:0:0:0:1 - - [27/Feb/2020:09:01:47 +0530] "GET /JSP(Project_No-02)/HomePageFrameSet.html HTTP/1.1" 304 -
0:0:0:0:0:0:0:1 - - [27/Feb/2020:09:01:47 +0530] "GET /JSP(Project_No-02)/Header.jsp HTTP/1.1" 200 475
0:0:0:0:0:0:0:1 - - [27/Feb/2020:09:01:47 +0530] "GET /JSP(Project_No-02)/Display.jsp HTTP/1.1" 200 1727
0:0:0:0:0:0:0:1 - - [27/Feb/2020:09:01:47 +0530] "GET /JSP(Project_No-02)/LastSeen HTTP/1.1" 200 593
0:0:0:0:0:0:0:1 - - [27/Feb/2020:09:01:48 +0530] "GET /JSP(Project_No-02)/HomePageFrameSet.html HTTP/1.1" 304 -
0:0:0:0:0:0:0:1 - - [27/Feb/2020:09:01:49 +0530] "GET /JSP(Project_No-02)/Header.jsp HTTP/1.1" 200 475
0:0:0:0:0:0:0:1 - - [27/Feb/2020:09:01:49 +0530] "GET /JSP(Project_No-02)/Display.jsp HTTP/1.1" 200 1727
0:0:0:0:0:0:0:1 - - [27/Feb/2020:09:01:49 +0530] "GET /JSP(Project_No-02)/LastSeen HTTP/1.1" 200 593
0:0:0:0:0:0:0:1 - - [27/Feb/2020:09:01:49 +0530] "GET /JSP(Project_No-02)/HomePageFrameSet.html HTTP/1.1" 304 -
0:0:0:0:0:0:0:1 - - [27/Feb/2020:09:01:50 +0530] "GET /JSP(Project_No-02)/Header.jsp HTTP/1.1" 200 475
0:0:0:0:0:0:0:1 - - [27/Feb/2020:09:01:50 +0530] "GET /JSP(Project_No-02)/Display.jsp HTTP/1.1" 200 1727
0:0:0:0:0:0:0:1 - - [27/Feb/2020:09:01:50 +0530] "GET /JSP(Project_No-02)/LastSeen HTTP/1.1" 200 593
0:0:0:0:0:0:0:1 - - [27/Feb/2020:09:02:22 +0530] "GET /JSP(Project_No-02)/HomePageFrameSet.html HTTP/1.1" 200 304
0:0:0:0:0:0:0:1 - - [27/Feb/2020:09:02:23 +0530] "GET /JSP(Project_No-02)/Header.jsp HTTP/1.1" 200 475
0:0:0:0:0:0:0:1 - - [27/Feb/2020:09:02:23 +0530] "GET /JSP(Project_No-02)/LastSeen HTTP/1.1" 200 593
0:0:0:0:0:0:0:1 - - [27/Feb/2020:09:02:23 +0530] "GET /JSP(Project_No-02)/Display.jsp HTTP/1.1" 200 1727
0:0:0:0:0:0:0:1 - - [27/Feb/2020:09:02:38 +0530] "GET /JSP(Project_No-02)/HomePageFrameSet.html HTTP/1.1" 200 304
0:0:0:0:0:0:0:1 - - [27/Feb/2020:09:02:38 +0530] "GET /JSP(Project_No-02)/Header.jsp HTTP/1.1" 200 475
0:0:0:0:0:0:0:1 - - [27/Feb/2020:09:02:38 +0530] "GET /JSP(Project_No-02)/Display.jsp HTTP/1.1" 200 1727
0:0:0:0:0:0:0:1 - - [27/Feb/2020:09:02:38 +0530] "GET /JSP(Project_No-02)/LastSeen HTTP/1.1" 200 593
0:0:0:0:0:0:0:1 - - [27/Feb/2020:09:02:39 +0530] "GET /JSP(Project_No-02)/HomePageFrameSet.html HTTP/1.1" 304 -
0:0:0:0:0:0:0:1 - - [27/Feb/2020:09:02:39 +0530] "GET /JSP(Project_No-02)/Header.jsp HTTP/1.1" 200 475
0:0:0:0:0:0:0:1 - - [27/Feb/2020:09:02:39 +0530] "GET /JSP(Project_No-02)/Display.jsp HTTP/1.1" 200 1727
0:0:0:0:0:0:0:1 - - [27/Feb/2020:09:02:39 +0530] "GET /JSP(Project_No-02)/LastSeen HTTP/1.1" 200 593
0:0:0:0:0:0:0:1 - - [27/Feb/2020:09:02:40 +0530] "GET /JSP(Project_No-02)/HomePageFrameSet.html HTTP/1.1" 304 -
0:0:0:0:0:0:0:1 - - [27/Feb/2020:09:02:40 +0530] "GET /JSP(Project_No-02)/Header.jsp HTTP/1.1" 200 475
0:0:0:0:0:0:0:1 - - [27/Feb/2020:09:02:40 +0530] "GET /JSP(Project_No-02)/LastSeen HTTP/1.1" 200 593
0:0:0:0:0:0:0:1 - - [27/Feb/2020:09:02:40 +0530] "GET /JSP(Project_No-02)/Display.jsp HTTP/1.1" 200 1727
0:0:0:0:0:0:0:1 - - [27/Feb/2020:09:02:40 +0530] "GET /JSP(Project_No-02)/HomePageFrameSet.html HTTP/1.1" 304 -
0:0:0:0:0:0:0:1 - - [27/Feb/2020:09:02:40 +0530] "GET /JSP(Project_No-02)/Header.jsp HTTP/1.1" 200 475
0:0:0:0:0:0:0:1 - - [27/Feb/2020:09:02:41 +0530] "GET /JSP(Project_No-02)/Display.jsp HTTP/1.1" 200 1727
0:0:0:0:0:0:0:1 - - [27/Feb/2020:09:02:41 +0530] "GET /JSP(Project_No-02)/LastSeen HTTP/1.1" 200 593
0:0:0:0:0:0:0:1 - - [27/Feb/2020:09:02:41 +0530] "GET /JSP(Project_No-02)/HomePageFrameSet.html HTTP/1.1" 304 -
0:0:0:0:0:0:0:1 - - [27/Feb/2020:09:02:41 +0530] "GET /JSP(Project_No-02)/Header.jsp HTTP/1.1" 200 475
0:0:0:0:0:0:0:1 - - [27/Feb/2020:09:02:42 +0530] "GET /JSP(Project_No-02)/Display.jsp HTTP/1.1" 200 1727
0:0:0:0:0:0:0:1 - - [27/Feb/2020:09:02:42 +0530] "GET /JSP(Project_No-02)/LastSeen HTTP/1.1" 200 593
0:0:0:0:0:0:0:1 - - [27/Feb/2020:09:02:42 +0530] "GET /JSP(Project_No-02)/HomePageFrameSet.html HTTP/1.1" 304 -
0:0:0:0:0:0:0:1 - - [27/Feb/2020:09:02:42 +0530] "GET /JSP(Project_No-02)/Header.jsp HTTP/1.1" 200 475
0:0:0:0:0:0:0:1 - - [27/Feb/2020:09:02:42 +0530] "GET /JSP(Project_No-02)/Display.jsp HTTP/1.1" 200 1727
0:0:0:0:0:0:0:1 - - [27/Feb/2020:09:02:42 +0530] "GET /JSP(Project_No-02)/LastSeen HTTP/1.1" 200 593
0:0:0:0:0:0:0:1 - - [27/Feb/2020:09:02:42 +0530] "GET /JSP(Project_No-02)/HomePageFrameSet.html HTTP/1.1" 304 -
0:0:0:0:0:0:0:1 - - [27/Feb/2020:09:02:42 +0530] "GET /JSP(Project_No-02)/Header.jsp HTTP/1.1" 200 475
0:0:0:0:0:0:0:1 - - [27/Feb/2020:09:02:42 +0530] "GET /JSP(Project_No-02)/Display.jsp HTTP/1.1" 200 1727
0:0:0:0:0:0:0:1 - - [27/Feb/2020:09:02:42 +0530] "GET /JSP(Project_No-02)/LastSeen HTTP/1.1" 200 593
0:0:0:0:0:0:0:1 - - [27/Feb/2020:09:02:43 +0530] "GET /JSP(Project_No-02)/HomePageFrameSet.html HTTP/1.1" 304 -
0:0:0:0:0:0:0:1 - - [27/Feb/2020:09:02:43 +0530] "GET /JSP(Project_No-02)/Header.jsp HTTP/1.1" 200 475
0:0:0:0:0:0:0:1 - - [27/Feb/2020:09:02:43 +0530] "GET /JSP(Project_No-02)/Display.jsp HTTP/1.1" 200 1727
0:0:0:0:0:0:0:1 - - [27/Feb/2020:09:02:43 +0530] "GET /JSP(Project_No-02)/LastSeen HTTP/1.1" 200 593
0:0:0:0:0:0:0:1 - - [27/Feb/2020:09:02:44 +0530] "GET /JSP(Project_No-02)/HomePageFrameSet.html HTTP/1.1" 304 -
0:0:0:0:0:0:0:1 - - [27/Feb/2020:09:02:44 +0530] "GET /JSP(Project_No-02)/Header.jsp HTTP/1.1" 200 475
0:0:0:0:0:0:0:1 - - [27/Feb/2020:09:02:44 +0530] "GET /JSP(Project_No-02)/Display.jsp HTTP/1.1" 200 1727
0:0:0:0:0:0:0:1 - - [27/Feb/2020:09:02:44 +0530] "GET /JSP(Project_No-02)/LastSeen HTTP/1.1" 200 593
0:0:0:0:0:0:0:1 - - [27/Feb/2020:09:06:06 +0530] "GET /JSP(Project_No-02)/HomePageFrameSet.html HTTP/1.1" 304 -
0:0:0:0:0:0:0:1 - - [27/Feb/2020:09:06:06 +0530] "GET /JSP(Project_No-02)/Header.jsp HTTP/1.1" 200 475
0:0:0:0:0:0:0:1 - - [27/Feb/2020:09:06:06 +0530] "GET /JSP(Project_No-02)/Display.jsp HTTP/1.1" 200 1727
0:0:0:0:0:0:0:1 - - [27/Feb/2020:09:06:06 +0530] "GET /JSP(Project_No-02)/LastSeen HTTP/1.1" 200 593
0:0:0:0:0:0:0:1 - - [27/Feb/2020:09:09:01 +0530] "GET /JSP(Project_No-02)/HomePageFrameSet.html HTTP/1.1" 304 -
0:0:0:0:0:0:0:1 - - [27/Feb/2020:09:09:01 +0530] "GET /JSP(Project_No-02)/Header.jsp HTTP/1.1" 200 475
0:0:0:0:0:0:0:1 - - [27/Feb/2020:09:09:01 +0530] "GET /JSP(Project_No-02)/Display.jsp HTTP/1.1" 200 1727
0:0:0:0:0:0:0:1 - - [27/Feb/2020:09:09:01 +0530] "GET /JSP(Project_No-02)/LastSeen HTTP/1.1" 200 593
0:0:0:0:0:0:0:1 - - [27/Feb/2020:09:41:36 +0530] "GET /JSP(Project_No-02)/HomePageFrameSet.html HTTP/1.1" 304 -
0:0:0:0:0:0:0:1 - - [27/Feb/2020:09:41:36 +0530] "GET /JSP(Project_No-02)/Header.jsp HTTP/1.1" 200 475
0:0:0:0:0:0:0:1 - - [27/Feb/2020:09:41:36 +0530] "GET /JSP(Project_No-02)/Display.jsp HTTP/1.1" 200 1727
0:0:0:0:0:0:0:1 - - [27/Feb/2020:09:41:36 +0530] "GET /JSP(Project_No-02)/LastSeen HTTP/1.1" 200 595
0:0:0:0:0:0:0:1 - - [27/Feb/2020:09:42:09 +0530] "GET /JSP(Project_No-02)/Edit.jsp?id=01 HTTP/1.1" 200 3798
0:0:0:0:0:0:0:1 - - [27/Feb/2020:09:42:14 +0530] "POST /JSP(Project_No-02)/EditServlet HTTP/1.1" 200 3846
0:0:0:0:0:0:0:1 - - [27/Feb/2020:09:42:18 +0530] "GET /JSP(Project_No-02)/HomePageFrameSet.html HTTP/1.1" 304 -
0:0:0:0:0:0:0:1 - - [27/Feb/2020:09:42:18 +0530] "GET /JSP(Project_No-02)/Header.jsp HTTP/1.1" 200 475
0:0:0:0:0:0:0:1 - - [27/Feb/2020:09:42:18 +0530] "GET /JSP(Project_No-02)/Display.jsp HTTP/1.1" 200 1727
0:0:0:0:0:0:0:1 - - [27/Feb/2020:09:42:18 +0530] "GET /JSP(Project_No-02)/LastSeen HTTP/1.1" 200 594
0:0:0:0:0:0:0:1 - - [27/Feb/2020:09:44:46 +0530] "GET /JSP(Project_No-02)/HomePageFrameSet.html HTTP/1.1" 304 -
0:0:0:0:0:0:0:1 - - [27/Feb/2020:09:44:46 +0530] "GET /JSP(Project_No-02)/Header.jsp HTTP/1.1" 200 475
0:0:0:0:0:0:0:1 - - [27/Feb/2020:09:44:46 +0530] "GET /JSP(Project_No-02)/Display.jsp HTTP/1.1" 200 1727
0:0:0:0:0:0:0:1 - - [27/Feb/2020:09:44:46 +0530] "GET /JSP(Project_No-02)/LastSeen HTTP/1.1" 200 594
0:0:0:0:0:0:0:1 - - [27/Feb/2020:09:45:31 +0530] "GET /JSP(Project_No-02)/HomePageFrameSet.html HTTP/1.1" 304 -
0:0:0:0:0:0:0:1 - - [27/Feb/2020:09:45:31 +0530] "GET /JSP(Project_No-02)/Header.jsp HTTP/1.1" 200 475
0:0:0:0:0:0:0:1 - - [27/Feb/2020:09:45:31 +0530] "GET /JSP(Project_No-02)/Display.jsp HTTP/1.1" 200 1727
0:0:0:0:0:0:0:1 - - [27/Feb/2020:09:45:31 +0530] "GET /JSP(Project_No-02)/LastSeen HTTP/1.1" 200 594
0:0:0:0:0:0:0:1 - - [27/Feb/2020:09:47:20 +0530] "GET /JSP(Project_No-02)/Edit.jsp?id=01 HTTP/1.1" 200 3798
0:0:0:0:0:0:0:1 - - [27/Feb/2020:09:47:28 +0530] "POST /JSP(Project_No-02)/EditServlet HTTP/1.1" 200 2234
0:0:0:0:0:0:0:1 - - [27/Feb/2020:09:47:38 +0530] "GET /JSP(Project_No-02)/HomePageFrameSet.html HTTP/1.1" 304 -
0:0:0:0:0:0:0:1 - - [27/Feb/2020:09:47:38 +0530] "GET /JSP(Project_No-02)/Header.jsp HTTP/1.1" 200 475
0:0:0:0:0:0:0:1 - - [27/Feb/2020:09:47:38 +0530] "GET /JSP(Project_No-02)/Display.jsp HTTP/1.1" 200 1727
0:0:0:0:0:0:0:1 - - [27/Feb/2020:09:47:38 +0530] "GET /JSP(Project_No-02)/LastSeen HTTP/1.1" 200 594
0:0:0:0:0:0:0:1 - - [27/Feb/2020:09:47:40 +0530] "GET /JSP(Project_No-02)/HomePageFrameSet.html HTTP/1.1" 304 -
0:0:0:0:0:0:0:1 - - [27/Feb/2020:09:47:40 +0530] "GET /JSP(Project_No-02)/Header.jsp HTTP/1.1" 200 475
0:0:0:0:0:0:0:1 - - [27/Feb/2020:09:47:40 +0530] "GET /JSP(Project_No-02)/Display.jsp HTTP/1.1" 200 1727
0:0:0:0:0:0:0:1 - - [27/Feb/2020:09:47:40 +0530] "GET /JSP(Project_No-02)/LastSeen HTTP/1.1" 200 594
0:0:0:0:0:0:0:1 - - [27/Feb/2020:09:49:00 +0530] "GET /JSP(Project_No-02)/HomePageFrameSet.html HTTP/1.1" 304 -
0:0:0:0:0:0:0:1 - - [27/Feb/2020:09:49:00 +0530] "GET /JSP(Project_No-02)/Header.jsp HTTP/1.1" 200 475
0:0:0:0:0:0:0:1 - - [27/Feb/2020:09:49:00 +0530] "GET /JSP(Project_No-02)/Display.jsp HTTP/1.1" 200 1727
0:0:0:0:0:0:0:1 - - [27/Feb/2020:09:49:00 +0530] "GET /JSP(Project_No-02)/LastSeen HTTP/1.1" 200 594
0:0:0:0:0:0:0:1 - - [27/Feb/2020:09:50:20 +0530] "GET /JSP(Project_No-02)/HomePageFrameSet.html HTTP/1.1" 304 -
0:0:0:0:0:0:0:1 - - [27/Feb/2020:09:50:21 +0530] "GET /JSP(Project_No-02)/Header.jsp HTTP/1.1" 200 475
0:0:0:0:0:0:0:1 - - [27/Feb/2020:09:50:21 +0530] "GET /JSP(Project_No-02)/Display.jsp HTTP/1.1" 200 1727
0:0:0:0:0:0:0:1 - - [27/Feb/2020:09:50:21 +0530] "GET /JSP(Project_No-02)/LastSeen HTTP/1.1" 200 594
0:0:0:0:0:0:0:1 - - [27/Feb/2020:09:53:39 +0530] "GET /JSP(Project_No-02)/HomePageFrameSet.html HTTP/1.1" 304 -
0:0:0:0:0:0:0:1 - - [27/Feb/2020:09:53:40 +0530] "GET /JSP(Project_No-02)/Header.jsp HTTP/1.1" 200 475
0:0:0:0:0:0:0:1 - - [27/Feb/2020:09:53:40 +0530] "GET /JSP(Project_No-02)/Display.jsp HTTP/1.1" 200 1727
0:0:0:0:0:0:0:1 - - [27/Feb/2020:09:53:40 +0530] "GET /JSP(Project_No-02)/LastSeen HTTP/1.1" 200 595
0:0:0:0:0:0:0:1 - - [27/Feb/2020:10:00:34 +0530] "GET /JSP(Project_No-02)/HomePageFrameSet.html HTTP/1.1" 304 -
0:0:0:0:0:0:0:1 - - [27/Feb/2020:10:00:34 +0530] "GET /JSP(Project_No-02)/Header.jsp HTTP/1.1" 200 475
0:0:0:0:0:0:0:1 - - [27/Feb/2020:10:00:34 +0530] "GET /JSP(Project_No-02)/Display.jsp HTTP/1.1" 200 1727
0:0:0:0:0:0:0:1 - - [27/Feb/2020:10:00:34 +0530] "GET /JSP(Project_No-02)/LastSeen HTTP/1.1" 200 593
0:0:0:0:0:0:0:1 - - [27/Feb/2020:10:05:28 +0530] "GET /JSP(Project_No-02)/HomePageFrameSet.html HTTP/1.1" 304 -
0:0:0:0:0:0:0:1 - - [27/Feb/2020:10:05:28 +0530] "GET /JSP(Project_No-02)/Header.jsp HTTP/1.1" 200 475
0:0:0:0:0:0:0:1 - - [27/Feb/2020:10:05:28 +0530] "GET /JSP(Project_No-02)/LastSeen HTTP/1.1" 200 593
0:0:0:0:0:0:0:1 - - [27/Feb/2020:10:05:28 +0530] "GET /JSP(Project_No-02)/Display.jsp HTTP/1.1" 200 1727
0:0:0:0:0:0:0:1 - - [27/Feb/2020:10:05:29 +0530] "GET /JSP(Project_No-02)/HomePageFrameSet.html HTTP/1.1" 304 -
0:0:0:0:0:0:0:1 - - [27/Feb/2020:10:05:29 +0530] "GET /JSP(Project_No-02)/Header.jsp HTTP/1.1" 200 475
0:0:0:0:0:0:0:1 - - [27/Feb/2020:10:05:29 +0530] "GET /JSP(Project_No-02)/Display.jsp HTTP/1.1" 200 1727
0:0:0:0:0:0:0:1 - - [27/Feb/2020:10:05:29 +0530] "GET /JSP(Project_No-02)/LastSeen HTTP/1.1" 200 593
0:0:0:0:0:0:0:1 - - [27/Feb/2020:10:05:29 +0530] "GET /JSP(Project_No-02)/HomePageFrameSet.html HTTP/1.1" 304 -
0:0:0:0:0:0:0:1 - - [27/Feb/2020:10:05:29 +0530] "GET /JSP(Project_No-02)/Header.jsp HTTP/1.1" 200 475
0:0:0:0:0:0:0:1 - - [27/Feb/2020:10:05:29 +0530] "GET /JSP(Project_No-02)/Display.jsp HTTP/1.1" 200 1727
0:0:0:0:0:0:0:1 - - [27/Feb/2020:10:05:29 +0530] "GET /JSP(Project_No-02)/LastSeen HTTP/1.1" 200 593
0:0:0:0:0:0:0:1 - - [27/Feb/2020:10:05:29 +0530] "GET /JSP(Project_No-02)/HomePageFrameSet.html HTTP/1.1" 304 -
0:0:0:0:0:0:0:1 - - [27/Feb/2020:10:05:30 +0530] "GET /JSP(Project_No-02)/Header.jsp HTTP/1.1" 200 475
0:0:0:0:0:0:0:1 - - [27/Feb/2020:10:05:30 +0530] "GET /JSP(Project_No-02)/Display.jsp HTTP/1.1" 200 1727
0:0:0:0:0:0:0:1 - - [27/Feb/2020:10:05:30 +0530] "GET /JSP(Project_No-02)/LastSeen HTTP/1.1" 200 593
0:0:0:0:0:0:0:1 - - [27/Feb/2020:10:05:30 +0530] "GET /JSP(Project_No-02)/HomePageFrameSet.html HTTP/1.1" 304 -
0:0:0:0:0:0:0:1 - - [27/Feb/2020:10:05:30 +0530] "GET /JSP(Project_No-02)/Header.jsp HTTP/1.1" 200 475
0:0:0:0:0:0:0:1 - - [27/Feb/2020:10:05:30 +0530] "GET /JSP(Project_No-02)/Display.jsp HTTP/1.1" 200 1727
0:0:0:0:0:0:0:1 - - [27/Feb/2020:10:05:30 +0530] "GET /JSP(Project_No-02)/LastSeen HTTP/1.1" 200 593
0:0:0:0:0:0:0:1 - - [27/Feb/2020:10:05:30 +0530] "GET /JSP(Project_No-02)/HomePageFrameSet.html HTTP/1.1" 304 -
0:0:0:0:0:0:0:1 - - [27/Feb/2020:10:05:30 +0530] "GET /JSP(Project_No-02)/Header.jsp HTTP/1.1" 200 475
0:0:0:0:0:0:0:1 - - [27/Feb/2020:10:05:30 +0530] "GET /JSP(Project_No-02)/Display.jsp HTTP/1.1" 200 1727
0:0:0:0:0:0:0:1 - - [27/Feb/2020:10:05:30 +0530] "GET /JSP(Project_No-02)/LastSeen HTTP/1.1" 200 593
0:0:0:0:0:0:0:1 - - [27/Feb/2020:10:05:31 +0530] "GET /JSP(Project_No-02)/HomePageFrameSet.html HTTP/1.1" 304 -
0:0:0:0:0:0:0:1 - - [27/Feb/2020:10:05:31 +0530] "GET /JSP(Project_No-02)/Header.jsp HTTP/1.1" 200 475
0:0:0:0:0:0:0:1 - - [27/Feb/2020:10:05:31 +0530] "GET /JSP(Project_No-02)/Display.jsp HTTP/1.1" 200 1727
0:0:0:0:0:0:0:1 - - [27/Feb/2020:10:05:31 +0530] "GET /JSP(Project_No-02)/LastSeen HTTP/1.1" 200 593
0:0:0:0:0:0:0:1 - - [27/Feb/2020:10:05:31 +0530] "GET /JSP(Project_No-02)/HomePageFrameSet.html HTTP/1.1" 304 -
0:0:0:0:0:0:0:1 - - [27/Feb/2020:10:05:31 +0530] "GET /JSP(Project_No-02)/Header.jsp HTTP/1.1" 200 475
0:0:0:0:0:0:0:1 - - [27/Feb/2020:10:05:31 +0530] "GET /JSP(Project_No-02)/Display.jsp HTTP/1.1" 200 1727
0:0:0:0:0:0:0:1 - - [27/Feb/2020:10:05:31 +0530] "GET /JSP(Project_No-02)/LastSeen HTTP/1.1" 200 593
0:0:0:0:0:0:0:1 - - [27/Feb/2020:10:05:31 +0530] "GET /JSP(Project_No-02)/HomePageFrameSet.html HTTP/1.1" 304 -
0:0:0:0:0:0:0:1 - - [27/Feb/2020:10:05:31 +0530] "GET /JSP(Project_No-02)/Header.jsp HTTP/1.1" 200 475
0:0:0:0:0:0:0:1 - - [27/Feb/2020:10:05:31 +0530] "GET /JSP(Project_No-02)/Display.jsp HTTP/1.1" 200 1727
0:0:0:0:0:0:0:1 - - [27/Feb/2020:10:05:32 +0530] "GET /JSP(Project_No-02)/LastSeen HTTP/1.1" 200 593
0:0:0:0:0:0:0:1 - - [27/Feb/2020:10:05:38 +0530] "GET /JSP(Project_No-02)/Edit.jsp?id=01 HTTP/1.1" 200 3798
127.0.0.1 - - [27/Feb/2020:10:58:27 +0530] "GET / HTTP/1.1" 404 1074
0:0:0:0:0:0:0:1 - - [27/Feb/2020:10:58:30 +0530] "GET /ELDemo/Student HTTP/1.1" 200 329
0:0:0:0:0:0:0:1 - - [27/Feb/2020:11:01:09 +0530] "GET /ELDemo/Student HTTP/1.1" 200 329
0:0:0:0:0:0:0:1 - - [27/Feb/2020:11:01:10 +0530] "GET /ELDemo/Student HTTP/1.1" 200 329
0:0:0:0:0:0:0:1 - - [27/Feb/2020:11:01:10 +0530] "GET /ELDemo/Student HTTP/1.1" 200 329
0:0:0:0:0:0:0:1 - - [27/Feb/2020:11:01:11 +0530] "GET /ELDemo/Student HTTP/1.1" 200 329
0:0:0:0:0:0:0:1 - - [27/Feb/2020:11:01:11 +0530] "GET /ELDemo/Student HTTP/1.1" 200 329
0:0:0:0:0:0:0:1 - - [27/Feb/2020:11:01:11 +0530] "GET /ELDemo/Student HTTP/1.1" 200 329
0:0:0:0:0:0:0:1 - - [27/Feb/2020:11:01:11 +0530] "GET /ELDemo/Student HTTP/1.1" 200 329
0:0:0:0:0:0:0:1 - - [27/Feb/2020:11:01:12 +0530] "GET /ELDemo/Student HTTP/1.1" 200 329
0:0:0:0:0:0:0:1 - - [27/Feb/2020:11:01:12 +0530] "GET /ELDemo/Student HTTP/1.1" 200 329
0:0:0:0:0:0:0:1 - - [27/Feb/2020:11:01:13 +0530] "GET /ELDemo/Student HTTP/1.1" 200 329
0:0:0:0:0:0:0:1 - - [27/Feb/2020:11:01:13 +0530] "GET /ELDemo/Student HTTP/1.1" 200 329
0:0:0:0:0:0:0:1 - - [27/Feb/2020:11:01:13 +0530] "GET /ELDemo/Student HTTP/1.1" 200 329
0:0:0:0:0:0:0:1 - - [27/Feb/2020:11:01:13 +0530] "GET /ELDemo/Student HTTP/1.1" 200 329
0:0:0:0:0:0:0:1 - - [27/Feb/2020:11:01:13 +0530] "GET /ELDemo/Student HTTP/1.1" 200 329
0:0:0:0:0:0:0:1 - - [27/Feb/2020:11:01:46 +0530] "GET /ELDemo/Student HTTP/1.1" 200 322
0:0:0:0:0:0:0:1 - - [27/Feb/2020:11:01:47 +0530] "GET /ELDemo/Student HTTP/1.1" 200 322
0:0:0:0:0:0:0:1 - - [27/Feb/2020:11:01:47 +0530] "GET /ELDemo/Student HTTP/1.1" 200 322
0:0:0:0:0:0:0:1 - - [27/Feb/2020:11:01:47 +0530] "GET /ELDemo/Student HTTP/1.1" 200 322
0:0:0:0:0:0:0:1 - - [27/Feb/2020:11:01:47 +0530] "GET /ELDemo/Student HTTP/1.1" 200 322
0:0:0:0:0:0:0:1 - - [27/Feb/2020:11:01:48 +0530] "GET /ELDemo/Student HTTP/1.1" 200 322
0:0:0:0:0:0:0:1 - - [27/Feb/2020:11:01:48 +0530] "GET /ELDemo/Student HTTP/1.1" 200 322
0:0:0:0:0:0:0:1 - - [27/Feb/2020:11:02:04 +0530] "GET /ELDemo/Student HTTP/1.1" 200 322
0:0:0:0:0:0:0:1 - - [27/Feb/2020:11:02:10 +0530] "GET /ELDemo/Student HTTP/1.1" 200 322
0:0:0:0:0:0:0:1 - - [27/Feb/2020:11:02:10 +0530] "GET /ELDemo/Student HTTP/1.1" 200 322
0:0:0:0:0:0:0:1 - - [27/Feb/2020:11:02:10 +0530] "GET /ELDemo/Student HTTP/1.1" 200 322
0:0:0:0:0:0:0:1 - - [27/Feb/2020:11:02:11 +0530] "GET /ELDemo/Student HTTP/1.1" 200 322
0:0:0:0:0:0:0:1 - - [27/Feb/2020:11:02:11 +0530] "GET /ELDemo/Student HTTP/1.1" 200 322
0:0:0:0:0:0:0:1 - - [27/Feb/2020:11:02:11 +0530] "GET /ELDemo/Student HTTP/1.1" 200 322
0:0:0:0:0:0:0:1 - - [27/Feb/2020:11:02:11 +0530] "GET /ELDemo/Student HTTP/1.1" 200 322
0:0:0:0:0:0:0:1 - - [27/Feb/2020:11:02:11 +0530] "GET /ELDemo/Student HTTP/1.1" 200 322
0:0:0:0:0:0:0:1 - - [27/Feb/2020:11:03:22 +0530] "GET /ELDemo/Student HTTP/1.1" 200 329
0:0:0:0:0:0:0:1 - - [27/Feb/2020:11:03:22 +0530] "GET /ELDemo/Student HTTP/1.1" 200 329
0:0:0:0:0:0:0:1 - - [27/Feb/2020:11:03:23 +0530] "GET /ELDemo/Student HTTP/1.1" 200 329
0:0:0:0:0:0:0:1 - - [27/Feb/2020:11:03:23 +0530] "GET /ELDemo/Student HTTP/1.1" 200 329
0:0:0:0:0:0:0:1 - - [27/Feb/2020:11:03:23 +0530] "GET /ELDemo/Student HTTP/1.1" 200 329
0:0:0:0:0:0:0:1 - - [27/Feb/2020:11:03:23 +0530] "GET /ELDemo/Student HTTP/1.1" 200 329
0:0:0:0:0:0:0:1 - - [27/Feb/2020:11:03:24 +0530] "GET /ELDemo/Student HTTP/1.1" 200 329
0:0:0:0:0:0:0:1 - - [27/Feb/2020:11:03:24 +0530] "GET /ELDemo/Student HTTP/1.1" 200 329
0:0:0:0:0:0:0:1 - - [27/Feb/2020:11:03:24 +0530] "GET /ELDemo/Student HTTP/1.1" 200 329
0:0:0:0:0:0:0:1 - - [27/Feb/2020:11:03:24 +0530] "GET /ELDemo/Student HTTP/1.1" 200 329
0:0:0:0:0:0:0:1 - - [27/Feb/2020:11:03:25 +0530] "GET /ELDemo/Student HTTP/1.1" 200 329
0:0:0:0:0:0:0:1 - - [27/Feb/2020:11:03:25 +0530] "GET /ELDemo/Student HTTP/1.1" 200 329
0:0:0:0:0:0:0:1 - - [27/Feb/2020:11:03:25 +0530] "GET /ELDemo/Student HTTP/1.1" 200 329
0:0:0:0:0:0:0:1 - - [27/Feb/2020:11:03:25 +0530] "GET /ELDemo/Student HTTP/1.1" 200 329
0:0:0:0:0:0:0:1 - - [27/Feb/2020:11:03:26 +0530] "GET /ELDemo/Student HTTP/1.1" 200 329
0:0:0:0:0:0:0:1 - - [27/Feb/2020:11:03:57 +0530] "GET /ELDemo/Student HTTP/1.1" 200 329
0:0:0:0:0:0:0:1 - - [27/Feb/2020:11:03:58 +0530] "GET /ELDemo/Student HTTP/1.1" 200 329
0:0:0:0:0:0:0:1 - - [27/Feb/2020:11:03:58 +0530] "GET /ELDemo/Student HTTP/1.1" 200 329
0:0:0:0:0:0:0:1 - - [27/Feb/2020:11:03:59 +0530] "GET /ELDemo/Student HTTP/1.1" 200 329
0:0:0:0:0:0:0:1 - - [27/Feb/2020:11:03:59 +0530] "GET /ELDemo/Student HTTP/1.1" 200 329
0:0:0:0:0:0:0:1 - - [27/Feb/2020:11:03:59 +0530] "GET /ELDemo/Student HTTP/1.1" 200 329
0:0:0:0:0:0:0:1 - - [27/Feb/2020:11:03:59 +0530] "GET /ELDemo/Student HTTP/1.1" 200 329
0:0:0:0:0:0:0:1 - - [27/Feb/2020:11:03:59 +0530] "GET /ELDemo/Student HTTP/1.1" 200 329
0:0:0:0:0:0:0:1 - - [27/Feb/2020:11:04:00 +0530] "GET /ELDemo/Student HTTP/1.1" 200 329
0:0:0:0:0:0:0:1 - - [27/Feb/2020:11:04:00 +0530] "GET /ELDemo/Student HTTP/1.1" 200 329
0:0:0:0:0:0:0:1 - - [27/Feb/2020:11:04:00 +0530] "GET /ELDemo/Student HTTP/1.1" 200 329
0:0:0:0:0:0:0:1 - - [27/Feb/2020:11:04:00 +0530] "GET /ELDemo/Student HTTP/1.1" 200 329
0:0:0:0:0:0:0:1 - - [27/Feb/2020:11:04:01 +0530] "GET /ELDemo/Student HTTP/1.1" 200 329
0:0:0:0:0:0:0:1 - - [27/Feb/2020:11:05:28 +0530] "GET /ELDemo/Student HTTP/1.1" 200 329
127.0.0.1 - - [27/Feb/2020:11:11:57 +0530] "GET / HTTP/1.1" 404 1074
0:0:0:0:0:0:0:1 - - [27/Feb/2020:11:12:00 +0530] "GET /ELDemo/Student HTTP/1.1" 500 3788
0:0:0:0:0:0:0:1 - - [27/Feb/2020:11:13:35 +0530] "GET /ELDemo/Student HTTP/1.1" 500 3799
127.0.0.1 - - [27/Feb/2020:11:23:50 +0530] "GET / HTTP/1.1" 404 1074
0:0:0:0:0:0:0:1 - - [27/Feb/2020:11:23:53 +0530] "GET /ELDemo/Student HTTP/1.1" 500 3788
0:0:0:0:0:0:0:1 - - [27/Feb/2020:11:28:54 +0530] "GET /ELDemo/Display.jsp HTTP/1.1" 200 320
127.0.0.1 - - [27/Feb/2020:11:29:16 +0530] "GET / HTTP/1.1" 404 1074
0:0:0:0:0:0:0:1 - - [27/Feb/2020:11:29:18 +0530] "GET /ELDemo/Student HTTP/1.1" 500 3607
0:0:0:0:0:0:0:1 - - [27/Feb/2020:11:29:49 +0530] "GET /ELDemo/Student HTTP/1.1" 200 397
0:0:0:0:0:0:0:1 - - [27/Feb/2020:11:53:32 +0530] "GET /JSP(Project_No-02)/HomePageFrameSet.html HTTP/1.1" 304 -
0:0:0:0:0:0:0:1 - - [27/Feb/2020:11:53:32 +0530] "GET /JSP(Project_No-02)/Header.jsp HTTP/1.1" 200 475
0:0:0:0:0:0:0:1 - - [27/Feb/2020:11:53:35 +0530] "GET /JSP(Project_No-02)/LastSeen HTTP/1.1" 200 595
0:0:0:0:0:0:0:1 - - [27/Feb/2020:11:53:35 +0530] "GET /JSP(Project_No-02)/Display.jsp HTTP/1.1" 200 1727
0:0:0:0:0:0:0:1 - - [27/Feb/2020:11:54:59 +0530] "GET /JSP(Project_No-02)/HomePageFrameSet.html HTTP/1.1" 304 -
0:0:0:0:0:0:0:1 - - [27/Feb/2020:11:54:59 +0530] "GET /JSP(Project_No-02)/Header.jsp HTTP/1.1" 200 475
0:0:0:0:0:0:0:1 - - [27/Feb/2020:11:54:59 +0530] "GET /JSP(Project_No-02)/LastSeen HTTP/1.1" 200 595
0:0:0:0:0:0:0:1 - - [27/Feb/2020:11:54:59 +0530] "GET /JSP(Project_No-02)/Display.jsp HTTP/1.1" 200 1727
0:0:0:0:0:0:0:1 - - [27/Feb/2020:11:55:00 +0530] "GET /JSP(Project_No-02)/HomePageFrameSet.html HTTP/1.1" 304 -
0:0:0:0:0:0:0:1 - - [27/Feb/2020:11:55:00 +0530] "GET /JSP(Project_No-02)/Header.jsp HTTP/1.1" 200 475
0:0:0:0:0:0:0:1 - - [27/Feb/2020:11:55:00 +0530] "GET /JSP(Project_No-02)/Display.jsp HTTP/1.1" 200 1727
0:0:0:0:0:0:0:1 - - [27/Feb/2020:11:55:00 +0530] "GET /JSP(Project_No-02)/LastSeen HTTP/1.1" 200 595
0:0:0:0:0:0:0:1 - - [27/Feb/2020:11:55:00 +0530] "GET /JSP(Project_No-02)/HomePageFrameSet.html HTTP/1.1" 304 -
0:0:0:0:0:0:0:1 - - [27/Feb/2020:11:55:00 +0530] "GET /JSP(Project_No-02)/Header.jsp HTTP/1.1" 200 475
0:0:0:0:0:0:0:1 - - [27/Feb/2020:11:55:00 +0530] "GET /JSP(Project_No-02)/Display.jsp HTTP/1.1" 200 1727
0:0:0:0:0:0:0:1 - - [27/Feb/2020:11:55:00 +0530] "GET /JSP(Project_No-02)/LastSeen HTTP/1.1" 200 595
0:0:0:0:0:0:0:1 - - [27/Feb/2020:11:55:00 +0530] "GET /JSP(Project_No-02)/HomePageFrameSet.html HTTP/1.1" 304 -
0:0:0:0:0:0:0:1 - - [27/Feb/2020:11:55:01 +0530] "GET /JSP(Project_No-02)/Header.jsp HTTP/1.1" 200 475
0:0:0:0:0:0:0:1 - - [27/Feb/2020:11:55:01 +0530] "GET /JSP(Project_No-02)/Display.jsp HTTP/1.1" 200 1727
0:0:0:0:0:0:0:1 - - [27/Feb/2020:11:55:01 +0530] "GET /JSP(Project_No-02)/LastSeen HTTP/1.1" 200 595
0:0:0:0:0:0:0:1 - - [27/Feb/2020:11:55:01 +0530] "GET /JSP(Project_No-02)/HomePageFrameSet.html HTTP/1.1" 304 -
0:0:0:0:0:0:0:1 - - [27/Feb/2020:11:55:01 +0530] "GET /JSP(Project_No-02)/Header.jsp HTTP/1.1" 200 475
0:0:0:0:0:0:0:1 - - [27/Feb/2020:11:55:01 +0530] "GET /JSP(Project_No-02)/Display.jsp HTTP/1.1" 200 1727
0:0:0:0:0:0:0:1 - - [27/Feb/2020:11:55:01 +0530] "GET /JSP(Project_No-02)/LastSeen HTTP/1.1" 200 595
0:0:0:0:0:0:0:1 - - [27/Feb/2020:11:55:02 +0530] "GET /JSP(Project_No-02)/HomePageFrameSet.html HTTP/1.1" 304 -
0:0:0:0:0:0:0:1 - - [27/Feb/2020:11:55:02 +0530] "GET /JSP(Project_No-02)/Header.jsp HTTP/1.1" 200 475
0:0:0:0:0:0:0:1 - - [27/Feb/2020:11:55:02 +0530] "GET /JSP(Project_No-02)/Display.jsp HTTP/1.1" 200 1727
0:0:0:0:0:0:0:1 - - [27/Feb/2020:11:55:02 +0530] "GET /JSP(Project_No-02)/LastSeen HTTP/1.1" 200 595
0:0:0:0:0:0:0:1 - - [27/Feb/2020:11:55:02 +0530] "GET /JSP(Project_No-02)/HomePageFrameSet.html HTTP/1.1" 304 -
0:0:0:0:0:0:0:1 - - [27/Feb/2020:11:55:02 +0530] "GET /JSP(Project_No-02)/Header.jsp HTTP/1.1" 200 475
0:0:0:0:0:0:0:1 - - [27/Feb/2020:11:55:03 +0530] "GET /JSP(Project_No-02)/Display.jsp HTTP/1.1" 200 1727
0:0:0:0:0:0:0:1 - - [27/Feb/2020:11:55:03 +0530] "GET /JSP(Project_No-02)/LastSeen HTTP/1.1" 200 595
0:0:0:0:0:0:0:1 - - [27/Feb/2020:11:55:03 +0530] "GET /JSP(Project_No-02)/HomePageFrameSet.html HTTP/1.1" 304 -
0:0:0:0:0:0:0:1 - - [27/Feb/2020:11:55:03 +0530] "GET /JSP(Project_No-02)/Header.jsp HTTP/1.1" 200 475
0:0:0:0:0:0:0:1 - - [27/Feb/2020:11:55:03 +0530] "GET /JSP(Project_No-02)/Display.jsp HTTP/1.1" 200 1727
0:0:0:0:0:0:0:1 - - [27/Feb/2020:11:55:03 +0530] "GET /JSP(Project_No-02)/LastSeen HTTP/1.1" 200 595
0:0:0:0:0:0:0:1 - - [27/Feb/2020:11:55:03 +0530] "GET /JSP(Project_No-02)/HomePageFrameSet.html HTTP/1.1" 304 -
0:0:0:0:0:0:0:1 - - [27/Feb/2020:11:55:03 +0530] "GET /JSP(Project_No-02)/Header.jsp HTTP/1.1" 200 475
0:0:0:0:0:0:0:1 - - [27/Feb/2020:11:55:03 +0530] "GET /JSP(Project_No-02)/Display.jsp HTTP/1.1" 200 1727
0:0:0:0:0:0:0:1 - - [27/Feb/2020:11:55:03 +0530] "GET /JSP(Project_No-02)/LastSeen HTTP/1.1" 200 595
0:0:0:0:0:0:0:1 - - [27/Feb/2020:11:55:04 +0530] "GET /JSP(Project_No-02)/HomePageFrameSet.html HTTP/1.1" 304 -
0:0:0:0:0:0:0:1 - - [27/Feb/2020:11:55:04 +0530] "GET /JSP(Project_No-02)/Header.jsp HTTP/1.1" 200 475
0:0:0:0:0:0:0:1 - - [27/Feb/2020:11:55:04 +0530] "GET /JSP(Project_No-02)/Display.jsp HTTP/1.1" 200 1727
0:0:0:0:0:0:0:1 - - [27/Feb/2020:11:55:04 +0530] "GET /JSP(Project_No-02)/LastSeen HTTP/1.1" 200 595
0:0:0:0:0:0:0:1 - - [27/Feb/2020:11:55:04 +0530] "GET /JSP(Project_No-02)/HomePageFrameSet.html HTTP/1.1" 304 -
0:0:0:0:0:0:0:1 - - [27/Feb/2020:11:55:04 +0530] "GET /JSP(Project_No-02)/Header.jsp HTTP/1.1" 200 475
0:0:0:0:0:0:0:1 - - [27/Feb/2020:11:55:04 +0530] "GET /JSP(Project_No-02)/LastSeen HTTP/1.1" 200 595
0:0:0:0:0:0:0:1 - - [27/Feb/2020:11:55:04 +0530] "GET /JSP(Project_No-02)/Display.jsp HTTP/1.1" 200 1727
0:0:0:0:0:0:0:1 - - [27/Feb/2020:11:55:04 +0530] "GET /JSP(Project_No-02)/HomePageFrameSet.html HTTP/1.1" 304 -
0:0:0:0:0:0:0:1 - - [27/Feb/2020:11:55:04 +0530] "GET /JSP(Project_No-02)/Header.jsp HTTP/1.1" 200 475
0:0:0:0:0:0:0:1 - - [27/Feb/2020:11:55:04 +0530] "GET /JSP(Project_No-02)/Display.jsp HTTP/1.1" 200 1727
0:0:0:0:0:0:0:1 - - [27/Feb/2020:11:55:04 +0530] "GET /JSP(Project_No-02)/LastSeen HTTP/1.1" 200 595
0:0:0:0:0:0:0:1 - - [27/Feb/2020:11:55:05 +0530] "GET /JSP(Project_No-02)/HomePageFrameSet.html HTTP/1.1" 304 -
0:0:0:0:0:0:0:1 - - [27/Feb/2020:11:55:05 +0530] "GET /JSP(Project_No-02)/Header.jsp HTTP/1.1" 200 475
0:0:0:0:0:0:0:1 - - [27/Feb/2020:11:55:05 +0530] "GET /JSP(Project_No-02)/Display.jsp HTTP/1.1" 200 1727
0:0:0:0:0:0:0:1 - - [27/Feb/2020:11:55:05 +0530] "GET /JSP(Project_No-02)/LastSeen HTTP/1.1" 200 595
0:0:0:0:0:0:0:1 - - [27/Feb/2020:11:55:05 +0530] "GET /JSP(Project_No-02)/HomePageFrameSet.html HTTP/1.1" 304 -
0:0:0:0:0:0:0:1 - - [27/Feb/2020:11:55:05 +0530] "GET /JSP(Project_No-02)/Header.jsp HTTP/1.1" 200 475
0:0:0:0:0:0:0:1 - - [27/Feb/2020:11:55:05 +0530] "GET /JSP(Project_No-02)/Display.jsp HTTP/1.1" 200 1727
0:0:0:0:0:0:0:1 - - [27/Feb/2020:11:55:05 +0530] "GET /JSP(Project_No-02)/LastSeen HTTP/1.1" 200 595
0:0:0:0:0:0:0:1 - - [27/Feb/2020:11:55:06 +0530] "GET /JSP(Project_No-02)/HomePageFrameSet.html HTTP/1.1" 304 -
0:0:0:0:0:0:0:1 - - [27/Feb/2020:11:55:06 +0530] "GET /JSP(Project_No-02)/Header.jsp HTTP/1.1" 200 475
0:0:0:0:0:0:0:1 - - [27/Feb/2020:11:55:06 +0530] "GET /JSP(Project_No-02)/Display.jsp HTTP/1.1" 200 1727
0:0:0:0:0:0:0:1 - - [27/Feb/2020:11:55:06 +0530] "GET /JSP(Project_No-02)/LastSeen HTTP/1.1" 200 595
0:0:0:0:0:0:0:1 - - [27/Feb/2020:11:55:06 +0530] "GET /JSP(Project_No-02)/HomePageFrameSet.html HTTP/1.1" 304 -
0:0:0:0:0:0:0:1 - - [27/Feb/2020:11:55:06 +0530] "GET /JSP(Project_No-02)/Header.jsp HTTP/1.1" 200 475
0:0:0:0:0:0:0:1 - - [27/Feb/2020:11:55:06 +0530] "GET /JSP(Project_No-02)/Display.jsp HTTP/1.1" 200 1727
0:0:0:0:0:0:0:1 - - [27/Feb/2020:11:55:06 +0530] "GET /JSP(Project_No-02)/LastSeen HTTP/1.1" 200 595
0:0:0:0:0:0:0:1 - - [27/Feb/2020:11:55:07 +0530] "GET /JSP(Project_No-02)/HomePageFrameSet.html HTTP/1.1" 304 -
0:0:0:0:0:0:0:1 - - [27/Feb/2020:11:55:07 +0530] "GET /JSP(Project_No-02)/Header.jsp HTTP/1.1" 200 475
0:0:0:0:0:0:0:1 - - [27/Feb/2020:11:55:07 +0530] "GET /JSP(Project_No-02)/Display.jsp HTTP/1.1" 200 1727
0:0:0:0:0:0:0:1 - - [27/Feb/2020:11:55:07 +0530] "GET /JSP(Project_No-02)/LastSeen HTTP/1.1" 200 595
0:0:0:0:0:0:0:1 - - [27/Feb/2020:11:55:08 +0530] "GET /JSP(Project_No-02)/HomePageFrameSet.html HTTP/1.1" 304 -
0:0:0:0:0:0:0:1 - - [27/Feb/2020:11:55:08 +0530] "GET /JSP(Project_No-02)/Header.jsp HTTP/1.1" 200 475
0:0:0:0:0:0:0:1 - - [27/Feb/2020:11:55:08 +0530] "GET /JSP(Project_No-02)/Display.jsp HTTP/1.1" 200 1727
0:0:0:0:0:0:0:1 - - [27/Feb/2020:11:55:08 +0530] "GET /JSP(Project_No-02)/LastSeen HTTP/1.1" 200 595
127.0.0.1 - - [27/Feb/2020:12:02:57 +0530] "GET / HTTP/1.1" 404 1074
0:0:0:0:0:0:0:1 - - [27/Feb/2020:12:02:58 +0530] "GET /ELDemo/Home.html HTTP/1.1" 200 206
0:0:0:0:0:0:0:1 - - [27/Feb/2020:12:03:00 +0530] "GET /ELDemo/ArrayServlet HTTP/1.1" 404 1095
127.0.0.1 - - [27/Feb/2020:12:04:57 +0530] "GET / HTTP/1.1" 404 1074
0:0:0:0:0:0:0:1 - - [27/Feb/2020:12:05:02 +0530] "GET /ELDemo/ArrayServlet HTTP/1.1" 500 3808
0:0:0:0:0:0:0:1 - - [27/Feb/2020:12:05:42 +0530] "GET /ELDemo/ArrayServlet HTTP/1.1" 200 268
0:0:0:0:0:0:0:1 - - [27/Feb/2020:12:06:12 +0530] "GET /ELDemo/ArrayServlet HTTP/1.1" 200 283
0:0:0:0:0:0:0:1 - - [27/Feb/2020:12:06:39 +0530] "GET /ELDemo/ArrayServlet HTTP/1.1" 200 288
0:0:0:0:0:0:0:1 - - [27/Feb/2020:12:09:33 +0530] "GET /ELDemo/ArrayServlet HTTP/1.1" 200 293
0:0:0:0:0:0:0:1 - - [27/Feb/2020:12:10:29 +0530] "GET /ELDemo/ArrayServlet HTTP/1.1" 200 341
0:0:0:0:0:0:0:1 - - [27/Feb/2020:12:10:53 +0530] "GET /ELDemo/ArrayServlet HTTP/1.1" 200 369
0:0:0:0:0:0:0:1 - - [27/Feb/2020:12:12:39 +0530] "GET /ELDemo/ArrayServlet HTTP/1.1" 200 357
127.0.0.1 - - [27/Feb/2020:14:08:14 +0530] "GET / HTTP/1.1" 404 1074
0:0:0:0:0:0:0:1 - - [27/Feb/2020:14:08:15 +0530] "GET /ELDemo/HomePage.html HTTP/1.1" 200 204
0:0:0:0:0:0:0:1 - - [27/Feb/2020:14:08:17 +0530] "GET /ELDemo/MapServlet HTTP/1.1" 404 1098
0:0:0:0:0:0:0:1 - - [27/Feb/2020:14:09:26 +0530] "GET /ELDemo/HomePage.html HTTP/1.1" 200 204
0:0:0:0:0:0:0:1 - - [27/Feb/2020:14:09:27 +0530] "GET /ELDemo/HomePage.html HTTP/1.1" 304 -
0:0:0:0:0:0:0:1 - - [27/Feb/2020:14:09:27 +0530] "GET /ELDemo/HomePage.html HTTP/1.1" 304 -
0:0:0:0:0:0:0:1 - - [27/Feb/2020:14:09:27 +0530] "GET /ELDemo/HomePage.html HTTP/1.1" 304 -
0:0:0:0:0:0:0:1 - - [27/Feb/2020:14:09:28 +0530] "GET /ELDemo/HomePage.html HTTP/1.1" 304 -
0:0:0:0:0:0:0:1 - - [27/Feb/2020:14:09:28 +0530] "GET /ELDemo/HomePage.html HTTP/1.1" 304 -
0:0:0:0:0:0:0:1 - - [27/Feb/2020:14:09:29 +0530] "GET /ELDemo/HomePage.html HTTP/1.1" 304 -
0:0:0:0:0:0:0:1 - - [27/Feb/2020:14:09:30 +0530] "GET /ELDemo/HomePage.html HTTP/1.1" 304 -
0:0:0:0:0:0:0:1 - - [27/Feb/2020:14:09:30 +0530] "GET /ELDemo/HomePage.html HTTP/1.1" 304 -
0:0:0:0:0:0:0:1 - - [27/Feb/2020:14:09:31 +0530] "GET /ELDemo/HomePage.html HTTP/1.1" 304 -
0:0:0:0:0:0:0:1 - - [27/Feb/2020:14:09:31 +0530] "GET /ELDemo/HomePage.html HTTP/1.1" 304 -
0:0:0:0:0:0:0:1 - - [27/Feb/2020:14:09:31 +0530] "GET /ELDemo/HomePage.html HTTP/1.1" 304 -
0:0:0:0:0:0:0:1 - - [27/Feb/2020:14:09:31 +0530] "GET /ELDemo/HomePage.html HTTP/1.1" 304 -
0:0:0:0:0:0:0:1 - - [27/Feb/2020:14:09:31 +0530] "GET /ELDemo/HomePage.html HTTP/1.1" 304 -
0:0:0:0:0:0:0:1 - - [27/Feb/2020:14:09:32 +0530] "GET /ELDemo/MapServlet HTTP/1.1" 404 1098
0:0:0:0:0:0:0:1 - - [27/Feb/2020:14:09:46 +0530] "GET /ELDemo/MapServlet HTTP/1.1" 404 1098
0:0:0:0:0:0:0:1 - - [27/Feb/2020:14:10:22 +0530] "GET /ELDemo/HomePage.html HTTP/1.1" 304 -
0:0:0:0:0:0:0:1 - - [27/Feb/2020:14:10:22 +0530] "GET /ELDemo/HomePage.html HTTP/1.1" 304 -
0:0:0:0:0:0:0:1 - - [27/Feb/2020:14:10:23 +0530] "GET /ELDemo/HomePage.html HTTP/1.1" 304 -
0:0:0:0:0:0:0:1 - - [27/Feb/2020:14:10:26 +0530] "GET /ELDemo/MapServlet HTTP/1.1" 200 265
0:0:0:0:0:0:0:1 - - [27/Feb/2020:14:12:16 +0530] "GET /ELDemo/HomePage.html HTTP/1.1" 304 -
0:0:0:0:0:0:0:1 - - [27/Feb/2020:14:12:16 +0530] "GET /ELDemo/HomePage.html HTTP/1.1" 304 -
0:0:0:0:0:0:0:1 - - [27/Feb/2020:14:12:16 +0530] "GET /ELDemo/HomePage.html HTTP/1.1" 304 -
0:0:0:0:0:0:0:1 - - [27/Feb/2020:14:12:18 +0530] "GET /ELDemo/MapServlet HTTP/1.1" 200 267
0:0:0:0:0:0:0:1 - - [27/Feb/2020:14:12:23 +0530] "GET /ELDemo/HomePage.html HTTP/1.1" 304 -
0:0:0:0:0:0:0:1 - - [27/Feb/2020:14:12:26 +0530] "GET /ELDemo/HomePage.html HTTP/1.1" 304 -
0:0:0:0:0:0:0:1 - - [27/Feb/2020:14:12:27 +0530] "GET /ELDemo/HomePage.html HTTP/1.1" 304 -
0:0:0:0:0:0:0:1 - - [27/Feb/2020:14:12:27 +0530] "GET /ELDemo/HomePage.html HTTP/1.1" 304 -
0:0:0:0:0:0:0:1 - - [27/Feb/2020:14:12:27 +0530] "GET /ELDemo/HomePage.html HTTP/1.1" 304 -
0:0:0:0:0:0:0:1 - - [27/Feb/2020:14:12:27 +0530] "GET /ELDemo/HomePage.html HTTP/1.1" 304 -
0:0:0:0:0:0:0:1 - - [27/Feb/2020:14:12:27 +0530] "GET /ELDemo/HomePage.html HTTP/1.1" 304 -
0:0:0:0:0:0:0:1 - - [27/Feb/2020:14:12:27 +0530] "GET /ELDemo/HomePage.html HTTP/1.1" 304 -
0:0:0:0:0:0:0:1 - - [27/Feb/2020:14:12:28 +0530] "GET /ELDemo/HomePage.html HTTP/1.1" 304 -
0:0:0:0:0:0:0:1 - - [27/Feb/2020:14:12:29 +0530] "GET /ELDemo/MapServlet HTTP/1.1" 200 267
0:0:0:0:0:0:0:1 - - [27/Feb/2020:14:14:33 +0530] "GET /ELDemo/HomePage.html HTTP/1.1" 304 -
0:0:0:0:0:0:0:1 - - [27/Feb/2020:14:14:35 +0530] "GET /ELDemo/HomePage.html HTTP/1.1" 304 -
0:0:0:0:0:0:0:1 - - [27/Feb/2020:14:14:36 +0530] "GET /ELDemo/HomePage.html HTTP/1.1" 304 -
0:0:0:0:0:0:0:1 - - [27/Feb/2020:14:14:36 +0530] "GET /ELDemo/HomePage.html HTTP/1.1" 304 -
0:0:0:0:0:0:0:1 - - [27/Feb/2020:14:14:36 +0530] "GET /ELDemo/HomePage.html HTTP/1.1" 304 -
0:0:0:0:0:0:0:1 - - [27/Feb/2020:14:14:36 +0530] "GET /ELDemo/HomePage.html HTTP/1.1" 304 -
0:0:0:0:0:0:0:1 - - [27/Feb/2020:14:14:37 +0530] "GET /ELDemo/HomePage.html HTTP/1.1" 304 -
0:0:0:0:0:0:0:1 - - [27/Feb/2020:14:14:37 +0530] "GET /ELDemo/HomePage.html HTTP/1.1" 304 -
0:0:0:0:0:0:0:1 - - [27/Feb/2020:14:14:37 +0530] "GET /ELDemo/HomePage.html HTTP/1.1" 304 -
0:0:0:0:0:0:0:1 - - [27/Feb/2020:14:14:37 +0530] "GET /ELDemo/HomePage.html HTTP/1.1" 304 -
0:0:0:0:0:0:0:1 - - [27/Feb/2020:14:14:37 +0530] "GET /ELDemo/HomePage.html HTTP/1.1" 304 -
0:0:0:0:0:0:0:1 - - [27/Feb/2020:14:14:38 +0530] "GET /ELDemo/HomePage.html HTTP/1.1" 304 -
0:0:0:0:0:0:0:1 - - [27/Feb/2020:14:14:38 +0530] "GET /ELDemo/HomePage.html HTTP/1.1" 304 -
0:0:0:0:0:0:0:1 - - [27/Feb/2020:14:14:38 +0530] "GET /ELDemo/HomePage.html HTTP/1.1" 304 -
0:0:0:0:0:0:0:1 - - [27/Feb/2020:14:14:39 +0530] "GET /ELDemo/HomePage.html HTTP/1.1" 304 -
0:0:0:0:0:0:0:1 - - [27/Feb/2020:14:14:39 +0530] "GET /ELDemo/HomePage.html HTTP/1.1" 304 -
0:0:0:0:0:0:0:1 - - [27/Feb/2020:14:14:39 +0530] "GET /ELDemo/HomePage.html HTTP/1.1" 304 -
0:0:0:0:0:0:0:1 - - [27/Feb/2020:14:14:39 +0530] "GET /ELDemo/HomePage.html HTTP/1.1" 304 -
0:0:0:0:0:0:0:1 - - [27/Feb/2020:14:14:39 +0530] "GET /ELDemo/HomePage.html HTTP/1.1" 304 -
0:0:0:0:0:0:0:1 - - [27/Feb/2020:14:14:39 +0530] "GET /ELDemo/HomePage.html HTTP/1.1" 304 -
0:0:0:0:0:0:0:1 - - [27/Feb/2020:14:14:40 +0530] "GET /ELDemo/HomePage.html HTTP/1.1" 304 -
0:0:0:0:0:0:0:1 - - [27/Feb/2020:14:14:43 +0530] "GET /ELDemo/HomePage.html HTTP/1.1" 304 -
0:0:0:0:0:0:0:1 - - [27/Feb/2020:14:14:43 +0530] "GET /ELDemo/HomePage.html HTTP/1.1" 304 -
0:0:0:0:0:0:0:1 - - [27/Feb/2020:14:14:44 +0530] "GET /ELDemo/HomePage.html HTTP/1.1" 304 -
0:0:0:0:0:0:0:1 - - [27/Feb/2020:14:14:44 +0530] "GET /ELDemo/HomePage.html HTTP/1.1" 304 -
0:0:0:0:0:0:0:1 - - [27/Feb/2020:14:14:44 +0530] "GET /ELDemo/HomePage.html HTTP/1.1" 304 -
0:0:0:0:0:0:0:1 - - [27/Feb/2020:14:14:44 +0530] "GET /ELDemo/HomePage.html HTTP/1.1" 304 -
0:0:0:0:0:0:0:1 - - [27/Feb/2020:14:14:44 +0530] "GET /ELDemo/HomePage.html HTTP/1.1" 304 -
0:0:0:0:0:0:0:1 - - [27/Feb/2020:14:14:45 +0530] "GET /ELDemo/HomePage.html HTTP/1.1" 304 -
0:0:0:0:0:0:0:1 - - [27/Feb/2020:14:14:45 +0530] "GET /ELDemo/HomePage.html HTTP/1.1" 304 -
0:0:0:0:0:0:0:1 - - [27/Feb/2020:14:14:45 +0530] "GET /ELDemo/HomePage.html HTTP/1.1" 304 -
0:0:0:0:0:0:0:1 - - [27/Feb/2020:14:14:46 +0530] "GET /ELDemo/HomePage.html HTTP/1.1" 304 -
0:0:0:0:0:0:0:1 - - [27/Feb/2020:14:14:46 +0530] "GET /ELDemo/HomePage.html HTTP/1.1" 304 -
0:0:0:0:0:0:0:1 - - [27/Feb/2020:14:14:46 +0530] "GET /ELDemo/HomePage.html HTTP/1.1" 304 -
127.0.0.1 - - [27/Feb/2020:14:15:06 +0530] "GET / HTTP/1.1" 404 1074
0:0:0:0:0:0:0:1 - - [27/Feb/2020:14:15:11 +0530] "GET /ELDemo/MapServlet HTTP/1.1" 200 270
127.0.0.1 - - [27/Feb/2020:14:16:32 +0530] "GET / HTTP/1.1" 404 1074
0:0:0:0:0:0:0:1 - - [27/Feb/2020:14:16:38 +0530] "GET /ELDemo/MapServlet HTTP/1.1" 200 267
127.0.0.1 - - [27/Feb/2020:14:43:38 +0530] "GET / HTTP/1.1" 404 1074
0:0:0:0:0:0:0:1 - - [27/Feb/2020:14:43:45 +0530] "GET /ELDemo/MapServlet HTTP/1.1" 200 265
127.0.0.1 - - [27/Feb/2020:16:40:54 +0530] "GET / HTTP/1.1" 404 1074
0:0:0:0:0:0:0:1 - - [27/Feb/2020:16:40:58 +0530] "GET /JSTLDemo/JSTLDemo.html HTTP/1.1" 200 240
0:0:0:0:0:0:0:1 - - [27/Feb/2020:16:41:05 +0530] "GET /JSTLDemo/Demo.jsp?name=avinash HTTP/1.1" 404 1095
0:0:0:0:0:0:0:1 - - [27/Feb/2020:16:41:52 +0530] "GET /JSTLDemo/Demo.jsp?name=avinash HTTP/1.1" 404 1095
0:0:0:0:0:0:0:1 - - [27/Feb/2020:16:42:26 +0530] "GET /JSTLDemo/Demo.jsp?name=avinash HTTP/1.1" 404 1095
0:0:0:0:0:0:0:1 - - [27/Feb/2020:16:42:27 +0530] "GET /JSTLDemo/Demo.jsp?name=avinash HTTP/1.1" 404 1095
0:0:0:0:0:0:0:1 - - [27/Feb/2020:16:42:27 +0530] "GET /JSTLDemo/Demo.jsp?name=avinash HTTP/1.1" 404 1095
0:0:0:0:0:0:0:1 - - [27/Feb/2020:16:42:28 +0530] "GET /JSTLDemo/Demo.jsp?name=avinash HTTP/1.1" 404 1095
0:0:0:0:0:0:0:1 - - [27/Feb/2020:16:42:28 +0530] "GET /JSTLDemo/Demo.jsp?name=avinash HTTP/1.1" 404 1095
0:0:0:0:0:0:0:1 - - [27/Feb/2020:16:42:28 +0530] "GET /JSTLDemo/Demo.jsp?name=avinash HTTP/1.1" 404 1095
0:0:0:0:0:0:0:1 - - [27/Feb/2020:16:42:28 +0530] "GET /JSTLDemo/Demo.jsp?name=avinash HTTP/1.1" 404 1095
0:0:0:0:0:0:0:1 - - [27/Feb/2020:16:42:28 +0530] "GET /JSTLDemo/Demo.jsp?name=avinash HTTP/1.1" 404 1095
0:0:0:0:0:0:0:1 - - [27/Feb/2020:16:42:29 +0530] "GET /JSTLDemo/Demo.jsp?name=avinash HTTP/1.1" 404 1095
0:0:0:0:0:0:0:1 - - [27/Feb/2020:16:42:31 +0530] "GET /JSTLDemo/JSTLDemo.html HTTP/1.1" 200 240
0:0:0:0:0:0:0:1 - - [27/Feb/2020:16:42:37 +0530] "GET /JSTLDemo/JSTL.jsp?name=gjhghj HTTP/1.1" 200 319
0:0:0:0:0:0:0:1 - - [27/Feb/2020:16:56:49 +0530] "GET /JSTLDemo/Demo2.html HTTP/1.1" 200 241
0:0:0:0:0:0:0:1 - - [27/Feb/2020:16:56:54 +0530] "GET /JSTLDemo/Demo2.jsp?col=red HTTP/1.1" 500 3016
0:0:0:0:0:0:0:1 - - [27/Feb/2020:16:57:59 +0530] "GET /JSTLDemo/Demo2.jsp?col=red HTTP/1.1" 200 309
0:0:0:0:0:0:0:1 - - [27/Feb/2020:16:58:07 +0530] "GET /JSTLDemo/Demo2.jsp?col=green HTTP/1.1" 200 311
0:0:0:0:0:0:0:1 - - [27/Feb/2020:16:58:23 +0530] "GET /JSTLDemo/Demo2.jsp?col=killer HTTP/1.1" 200 296
0:0:0:0:0:0:0:1 - - [27/Feb/2020:17:02:11 +0530] "GET /JSTLDemo/Demo2.jsp?col=Green HTTP/1.1" 200 296
0:0:0:0:0:0:0:1 - - [27/Feb/2020:17:09:49 +0530] "GET /JSTLDemo/ForEach.jsp HTTP/1.1" 200 352
0:0:0:0:0:0:0:1 - - [27/Feb/2020:17:10:39 +0530] "GET /JSTLDemo/ForEach.jsp HTTP/1.1" 200 281
0:0:0:0:0:0:0:1 - - [27/Feb/2020:17:10:54 +0530] "GET /JSTLDemo/ForEach.jsp HTTP/1.1" 200 293
127.0.0.1 - - [27/Feb/2020:19:56:31 +0530] "GET / HTTP/1.1" 404 1074
0:0:0:0:0:0:0:1 - - [27/Feb/2020:19:56:33 +0530] "GET /JSP(Project_No-02)/HomePageFrameSet.html HTTP/1.1" 200 304
0:0:0:0:0:0:0:1 - - [27/Feb/2020:19:56:37 +0530] "GET /JSP(Project_No-02)/Header.jsp HTTP/1.1" 200 475
0:0:0:0:0:0:0:1 - - [27/Feb/2020:19:56:40 +0530] "GET /JSP(Project_No-02)/LastSeen HTTP/1.1" 200 595
0:0:0:0:0:0:0:1 - - [27/Feb/2020:19:56:40 +0530] "GET /JSP(Project_No-02)/Footer.html HTTP/1.1" 304 -
0:0:0:0:0:0:0:1 - - [27/Feb/2020:19:56:40 +0530] "GET /JSP(Project_No-02)/Header.css HTTP/1.1" 304 -
0:0:0:0:0:0:0:1 - - [27/Feb/2020:19:56:40 +0530] "GET /JSP(Project_No-02)/Footer.css HTTP/1.1" 304 -
0:0:0:0:0:0:0:1 - - [27/Feb/2020:19:56:40 +0530] "GET /JSP(Project_No-02)/Display.jsp HTTP/1.1" 200 1727
0:0:0:0:0:0:0:1 - - [27/Feb/2020:19:56:41 +0530] "GET /JSP(Project_No-02)/Display.css HTTP/1.1" 304 -
0:0:0:0:0:0:0:1 - - [27/Feb/2020:19:56:59 +0530] "GET /JSP(Project_No-02)/HomePageFrameSet.html HTTP/1.1" 304 -
0:0:0:0:0:0:0:1 - - [27/Feb/2020:19:56:59 +0530] "GET /JSP(Project_No-02)/Header.jsp HTTP/1.1" 200 475
0:0:0:0:0:0:0:1 - - [27/Feb/2020:19:56:59 +0530] "GET /JSP(Project_No-02)/Footer.html HTTP/1.1" 304 -
0:0:0:0:0:0:0:1 - - [27/Feb/2020:19:57:00 +0530] "GET /JSP(Project_No-02)/LastSeen HTTP/1.1" 200 595
0:0:0:0:0:0:0:1 - - [27/Feb/2020:19:57:00 +0530] "GET /JSP(Project_No-02)/Display.jsp HTTP/1.1" 200 1727
0:0:0:0:0:0:0:1 - - [27/Feb/2020:19:57:00 +0530] "GET /JSP(Project_No-02)/Footer.css HTTP/1.1" 304 -
0:0:0:0:0:0:0:1 - - [27/Feb/2020:19:57:00 +0530] "GET /JSP(Project_No-02)/Header.css HTTP/1.1" 304 -
0:0:0:0:0:0:0:1 - - [27/Feb/2020:19:57:00 +0530] "GET /JSP(Project_No-02)/Display.css HTTP/1.1" 304 -
0:0:0:0:0:0:0:1 - - [27/Feb/2020:19:57:01 +0530] "GET /favicon.ico HTTP/1.1" 404 1085
0:0:0:0:0:0:0:1 - - [27/Feb/2020:19:57:29 +0530] "GET /JSP(Project_No-02)/CreatePage.jsp HTTP/1.1" 200 3742
0:0:0:0:0:0:0:1 - - [27/Feb/2020:19:57:29 +0530] "GET /JSP(Project_No-02)/CreatePage.css HTTP/1.1" 304 -
127.0.0.1 - - [27/Feb/2020:21:02:36 +0530] "GET / HTTP/1.1" 404 1074
0:0:0:0:0:0:0:1 - - [27/Feb/2020:21:02:39 +0530] "GET /Advance_java_Demo/MainPage.jsp HTTP/1.1" 200 1053
0:0:0:0:0:0:0:1 - - [27/Feb/2020:21:02:39 +0530] "GET /Advance_java_Demo/Img/phonepe.jpg HTTP/1.1" 304 -
0:0:0:0:0:0:0:1 - - [27/Feb/2020:21:03:59 +0530] "GET /Advance_java_Demo/Login.html HTTP/1.1" 200 1177
0:0:0:0:0:0:0:1 - - [27/Feb/2020:21:03:59 +0530] "GET /Advance_java_Demo/Login.css HTTP/1.1" 304 -
0:0:0:0:0:0:0:1 - - [27/Feb/2020:21:04:08 +0530] "GET /Advance_java_Demo/Login.html HTTP/1.1" 200 1177
0:0:0:0:0:0:0:1 - - [27/Feb/2020:21:04:08 +0530] "GET /Advance_java_Demo/Login.css HTTP/1.1" 304 -
0:0:0:0:0:0:0:1 - - [27/Feb/2020:21:04:24 +0530] "POST /Advance_java_Demo/Login HTTP/1.1" 200 1261
0:0:0:0:0:0:0:1 - - [27/Feb/2020:21:04:39 +0530] "POST /Advance_java_Demo/Login HTTP/1.1" 200 1203
0:0:0:0:0:0:0:1 - - [27/Feb/2020:21:04:39 +0530] "GET /Advance_java_Demo/MainPage.css HTTP/1.1" 304 -
0:0:0:0:0:0:0:1 - - [27/Feb/2020:21:04:39 +0530] "GET /Advance_java_Demo/Img/phonepe.jpg HTTP/1.1" 304 -
0:0:0:0:0:0:0:1 - - [27/Feb/2020:21:06:49 +0530] "POST /Advance_java_Demo/Login HTTP/1.1" 200 1148
0:0:0:0:0:0:0:1 - - [27/Feb/2020:21:07:11 +0530] "POST /Advance_java_Demo/Login HTTP/1.1" 200 1148
0:0:0:0:0:0:0:1 - - [27/Feb/2020:21:08:18 +0530] "POST /Advance_java_Demo/Login HTTP/1.1" 200 1163
0:0:0:0:0:0:0:1 - - [27/Feb/2020:21:08:38 +0530] "POST /Advance_java_Demo/Login HTTP/1.1" 200 1163
127.0.0.1 - - [27/Feb/2020:21:11:07 +0530] "GET / HTTP/1.1" 404 1074
0:0:0:0:0:0:0:1 - - [27/Feb/2020:21:11:08 +0530] "GET /JSP(Project_No-02)/Login.html HTTP/1.1" 200 822
0:0:0:0:0:0:0:1 - - [27/Feb/2020:21:11:08 +0530] "GET /JSP(Project_No-02)/Login.css HTTP/1.1" 200 712
0:0:0:0:0:0:0:1 - - [27/Feb/2020:21:11:28 +0530] "GET /JSP(Project_No-02)/Login.html HTTP/1.1" 200 822
0:0:0:0:0:0:0:1 - - [27/Feb/2020:21:11:28 +0530] "GET /JSP(Project_No-02)/Login.css HTTP/1.1" 200 712
0:0:0:0:0:0:0:1 - - [27/Feb/2020:21:12:59 +0530] "GET /JSP(Project_No-02)/Login.html HTTP/1.1" 200 804
0:0:0:0:0:0:0:1 - - [27/Feb/2020:21:12:59 +0530] "GET /JSP(Project_No-02)/Login.css HTTP/1.1" 304 -
0:0:0:0:0:0:0:1 - - [27/Feb/2020:21:13:02 +0530] "GET /JSP(Project_No-02)/Login.html HTTP/1.1" 304 -
0:0:0:0:0:0:0:1 - - [27/Feb/2020:21:13:02 +0530] "GET /JSP(Project_No-02)/Login.html HTTP/1.1" 304 -
0:0:0:0:0:0:0:1 - - [27/Feb/2020:21:13:03 +0530] "GET /JSP(Project_No-02)/Login.html HTTP/1.1" 304 -
0:0:0:0:0:0:0:1 - - [27/Feb/2020:21:13:03 +0530] "GET /JSP(Project_No-02)/Login.html HTTP/1.1" 304 -
0:0:0:0:0:0:0:1 - - [27/Feb/2020:21:13:03 +0530] "GET /JSP(Project_No-02)/Login.html HTTP/1.1" 304 -
0:0:0:0:0:0:0:1 - - [27/Feb/2020:21:13:03 +0530] "GET /JSP(Project_No-02)/Login.html HTTP/1.1" 304 -
0:0:0:0:0:0:0:1 - - [27/Feb/2020:21:13:03 +0530] "GET /JSP(Project_No-02)/Login.html HTTP/1.1" 304 -
0:0:0:0:0:0:0:1 - - [27/Feb/2020:21:13:04 +0530] "GET /JSP(Project_No-02)/Login.html HTTP/1.1" 304 -
0:0:0:0:0:0:0:1 - - [27/Feb/2020:21:13:04 +0530] "GET /JSP(Project_No-02)/Login.html HTTP/1.1" 304 -
0:0:0:0:0:0:0:1 - - [27/Feb/2020:21:13:04 +0530] "GET /JSP(Project_No-02)/Login.html HTTP/1.1" 304 -
0:0:0:0:0:0:0:1 - - [27/Feb/2020:21:13:04 +0530] "GET /JSP(Project_No-02)/Login.html HTTP/1.1" 304 -
0:0:0:0:0:0:0:1 - - [27/Feb/2020:21:13:04 +0530] "GET /JSP(Project_No-02)/Login.html HTTP/1.1" 304 -
0:0:0:0:0:0:0:1 - - [27/Feb/2020:21:13:04 +0530] "GET /JSP(Project_No-02)/Login.html HTTP/1.1" 304 -
0:0:0:0:0:0:0:1 - - [27/Feb/2020:21:13:05 +0530] "GET /JSP(Project_No-02)/Login.html HTTP/1.1" 304 -
0:0:0:0:0:0:0:1 - - [27/Feb/2020:21:13:05 +0530] "GET /JSP(Project_No-02)/Login.html HTTP/1.1" 304 -
0:0:0:0:0:0:0:1 - - [27/Feb/2020:21:13:09 +0530] "GET /JSP(Project_No-02)/Login.html HTTP/1.1" 304 -
0:0:0:0:0:0:0:1 - - [27/Feb/2020:21:13:11 +0530] "GET /JSP(Project_No-02)/Login.html HTTP/1.1" 304 -
0:0:0:0:0:0:0:1 - - [27/Feb/2020:21:13:12 +0530] "GET /JSP(Project_No-02)/Login.html HTTP/1.1" 304 -
0:0:0:0:0:0:0:1 - - [27/Feb/2020:21:13:12 +0530] "GET /JSP(Project_No-02)/Login.css HTTP/1.1" 304 -
0:0:0:0:0:0:0:1 - - [27/Feb/2020:21:13:12 +0530] "GET /JSP(Project_No-02)/Login.html HTTP/1.1" 304 -
0:0:0:0:0:0:0:1 - - [27/Feb/2020:21:13:13 +0530] "GET /JSP(Project_No-02)/Login.html HTTP/1.1" 304 -
0:0:0:0:0:0:0:1 - - [27/Feb/2020:21:13:13 +0530] "GET /JSP(Project_No-02)/Login.html HTTP/1.1" 304 -
0:0:0:0:0:0:0:1 - - [27/Feb/2020:21:13:13 +0530] "GET /JSP(Project_No-02)/Login.html HTTP/1.1" 304 -
0:0:0:0:0:0:0:1 - - [27/Feb/2020:21:13:30 +0530] "GET /JSP(Project_No-02)/Login.html HTTP/1.1" 200 804
0:0:0:0:0:0:0:1 - - [27/Feb/2020:21:13:30 +0530] "GET /JSP(Project_No-02)/Login.css HTTP/1.1" 304 -
0:0:0:0:0:0:0:1 - - [27/Feb/2020:21:13:31 +0530] "GET /JSP(Project_No-02)/Login.html HTTP/1.1" 304 -
0:0:0:0:0:0:0:1 - - [27/Feb/2020:21:13:31 +0530] "GET /JSP(Project_No-02)/Login.css HTTP/1.1" 304 -
0:0:0:0:0:0:0:1 - - [27/Feb/2020:21:13:32 +0530] "GET /JSP(Project_No-02)/Login.html HTTP/1.1" 304 -
0:0:0:0:0:0:0:1 - - [27/Feb/2020:21:13:32 +0530] "GET /JSP(Project_No-02)/Login.css HTTP/1.1" 304 -
0:0:0:0:0:0:0:1 - - [27/Feb/2020:21:13:32 +0530] "GET /JSP(Project_No-02)/Login.html HTTP/1.1" 304 -
0:0:0:0:0:0:0:1 - - [27/Feb/2020:21:13:32 +0530] "GET /JSP(Project_No-02)/Login.css HTTP/1.1" 304 -
0:0:0:0:0:0:0:1 - - [27/Feb/2020:21:13:32 +0530] "GET /JSP(Project_No-02)/Login.html HTTP/1.1" 304 -
0:0:0:0:0:0:0:1 - - [27/Feb/2020:21:13:32 +0530] "GET /JSP(Project_No-02)/Login.css HTTP/1.1" 304 -
0:0:0:0:0:0:0:1 - - [27/Feb/2020:21:13:33 +0530] "GET /JSP(Project_No-02)/Login.html HTTP/1.1" 304 -
0:0:0:0:0:0:0:1 - - [27/Feb/2020:21:13:33 +0530] "GET /JSP(Project_No-02)/Login.css HTTP/1.1" 304 -
0:0:0:0:0:0:0:1 - - [27/Feb/2020:21:13:33 +0530] "GET /JSP(Project_No-02)/Login.html HTTP/1.1" 304 -
0:0:0:0:0:0:0:1 - - [27/Feb/2020:21:13:33 +0530] "GET /JSP(Project_No-02)/Login.css HTTP/1.1" 304 -
0:0:0:0:0:0:0:1 - - [27/Feb/2020:21:13:33 +0530] "GET /JSP(Project_No-02)/Login.html HTTP/1.1" 304 -
0:0:0:0:0:0:0:1 - - [27/Feb/2020:21:13:33 +0530] "GET /JSP(Project_No-02)/Login.css HTTP/1.1" 304 -
0:0:0:0:0:0:0:1 - - [27/Feb/2020:21:13:33 +0530] "GET /JSP(Project_No-02)/Login.html HTTP/1.1" 304 -
0:0:0:0:0:0:0:1 - - [27/Feb/2020:21:13:33 +0530] "GET /JSP(Project_No-02)/Login.css HTTP/1.1" 304 -
0:0:0:0:0:0:0:1 - - [27/Feb/2020:21:13:33 +0530] "GET /JSP(Project_No-02)/Login.html HTTP/1.1" 304 -
0:0:0:0:0:0:0:1 - - [27/Feb/2020:21:13:33 +0530] "GET /JSP(Project_No-02)/Login.css HTTP/1.1" 304 -
0:0:0:0:0:0:0:1 - - [27/Feb/2020:21:13:34 +0530] "GET /JSP(Project_No-02)/Login.html HTTP/1.1" 304 -
0:0:0:0:0:0:0:1 - - [27/Feb/2020:21:13:34 +0530] "GET /JSP(Project_No-02)/Login.css HTTP/1.1" 304 -
0:0:0:0:0:0:0:1 - - [27/Feb/2020:21:13:34 +0530] "GET /JSP(Project_No-02)/Login.html HTTP/1.1" 304 -
0:0:0:0:0:0:0:1 - - [27/Feb/2020:21:13:34 +0530] "GET /JSP(Project_No-02)/Login.css HTTP/1.1" 304 -
0:0:0:0:0:0:0:1 - - [27/Feb/2020:21:13:34 +0530] "GET /JSP(Project_No-02)/Login.html HTTP/1.1" 304 -
0:0:0:0:0:0:0:1 - - [27/Feb/2020:21:13:34 +0530] "GET /JSP(Project_No-02)/Login.css HTTP/1.1" 304 -
0:0:0:0:0:0:0:1 - - [27/Feb/2020:21:13:34 +0530] "GET /JSP(Project_No-02)/Login.html HTTP/1.1" 304 -
0:0:0:0:0:0:0:1 - - [27/Feb/2020:21:13:34 +0530] "GET /JSP(Project_No-02)/Login.css HTTP/1.1" 304 -
0:0:0:0:0:0:0:1 - - [27/Feb/2020:21:13:34 +0530] "GET /JSP(Project_No-02)/Login.html HTTP/1.1" 304 -
0:0:0:0:0:0:0:1 - - [27/Feb/2020:21:13:34 +0530] "GET /JSP(Project_No-02)/Login.css HTTP/1.1" 304 -
0:0:0:0:0:0:0:1 - - [27/Feb/2020:21:13:34 +0530] "GET /JSP(Project_No-02)/Login.html HTTP/1.1" 304 -
0:0:0:0:0:0:0:1 - - [27/Feb/2020:21:13:34 +0530] "GET /JSP(Project_No-02)/Login.css HTTP/1.1" 304 -
0:0:0:0:0:0:0:1 - - [27/Feb/2020:21:13:35 +0530] "GET /JSP(Project_No-02)/Login.html HTTP/1.1" 304 -
0:0:0:0:0:0:0:1 - - [27/Feb/2020:21:13:35 +0530] "GET /JSP(Project_No-02)/Login.css HTTP/1.1" 304 -
0:0:0:0:0:0:0:1 - - [27/Feb/2020:21:13:35 +0530] "GET /JSP(Project_No-02)/Login.html HTTP/1.1" 304 -
0:0:0:0:0:0:0:1 - - [27/Feb/2020:21:13:35 +0530] "GET /JSP(Project_No-02)/Login.css HTTP/1.1" 304 -
0:0:0:0:0:0:0:1 - - [27/Feb/2020:21:13:35 +0530] "GET /JSP(Project_No-02)/Login.html HTTP/1.1" 304 -
0:0:0:0:0:0:0:1 - - [27/Feb/2020:21:13:35 +0530] "GET /JSP(Project_No-02)/Login.css HTTP/1.1" 304 -
0:0:0:0:0:0:0:1 - - [27/Feb/2020:21:13:35 +0530] "GET /JSP(Project_No-02)/Login.html HTTP/1.1" 304 -
0:0:0:0:0:0:0:1 - - [27/Feb/2020:21:13:35 +0530] "GET /JSP(Project_No-02)/Login.css HTTP/1.1" 304 -
0:0:0:0:0:0:0:1 - - [27/Feb/2020:21:13:35 +0530] "GET /JSP(Project_No-02)/Login.html HTTP/1.1" 304 -
0:0:0:0:0:0:0:1 - - [27/Feb/2020:21:13:35 +0530] "GET /JSP(Project_No-02)/Login.css HTTP/1.1" 304 -
0:0:0:0:0:0:0:1 - - [27/Feb/2020:21:13:35 +0530] "GET /JSP(Project_No-02)/Login.html HTTP/1.1" 304 -
0:0:0:0:0:0:0:1 - - [27/Feb/2020:21:13:35 +0530] "GET /JSP(Project_No-02)/Login.css HTTP/1.1" 304 -
0:0:0:0:0:0:0:1 - - [27/Feb/2020:21:13:36 +0530] "GET /JSP(Project_No-02)/Login.html HTTP/1.1" 304 -
0:0:0:0:0:0:0:1 - - [27/Feb/2020:21:13:36 +0530] "GET /JSP(Project_No-02)/Login.css HTTP/1.1" 304 -
0:0:0:0:0:0:0:1 - - [27/Feb/2020:21:14:24 +0530] "GET /JSP(Project_No-02)/Login.html HTTP/1.1" 304 -
0:0:0:0:0:0:0:1 - - [27/Feb/2020:21:14:24 +0530] "GET /JSP(Project_No-02)/Login.css HTTP/1.1" 200 712
0:0:0:0:0:0:0:1 - - [27/Feb/2020:21:14:25 +0530] "GET /JSP(Project_No-02)/Login.html HTTP/1.1" 304 -
0:0:0:0:0:0:0:1 - - [27/Feb/2020:21:14:25 +0530] "GET /JSP(Project_No-02)/Login.css HTTP/1.1" 304 -
0:0:0:0:0:0:0:1 - - [27/Feb/2020:21:14:25 +0530] "GET /JSP(Project_No-02)/Login.html HTTP/1.1" 304 -
0:0:0:0:0:0:0:1 - - [27/Feb/2020:21:14:25 +0530] "GET /JSP(Project_No-02)/Login.css HTTP/1.1" 304 -
0:0:0:0:0:0:0:1 - - [27/Feb/2020:21:14:25 +0530] "GET /JSP(Project_No-02)/Login.html HTTP/1.1" 304 -
0:0:0:0:0:0:0:1 - - [27/Feb/2020:21:14:25 +0530] "GET /JSP(Project_No-02)/Login.css HTTP/1.1" 304 -
0:0:0:0:0:0:0:1 - - [27/Feb/2020:21:15:15 +0530] "GET /JSP(Project_No-02)/Login.html HTTP/1.1" 200 841
0:0:0:0:0:0:0:1 - - [27/Feb/2020:21:15:15 +0530] "GET /JSP(Project_No-02)/Login.css HTTP/1.1" 304 -
0:0:0:0:0:0:0:1 - - [27/Feb/2020:21:15:16 +0530] "GET /JSP(Project_No-02)/Login.html HTTP/1.1" 304 -
0:0:0:0:0:0:0:1 - - [27/Feb/2020:21:15:16 +0530] "GET /JSP(Project_No-02)/Login.css HTTP/1.1" 304 -
0:0:0:0:0:0:0:1 - - [27/Feb/2020:21:15:16 +0530] "GET /JSP(Project_No-02)/Login.html HTTP/1.1" 304 -
0:0:0:0:0:0:0:1 - - [27/Feb/2020:21:15:16 +0530] "GET /JSP(Project_No-02)/Login.css HTTP/1.1" 304 -
0:0:0:0:0:0:0:1 - - [27/Feb/2020:21:15:17 +0530] "GET /JSP(Project_No-02)/Login.html HTTP/1.1" 304 -
0:0:0:0:0:0:0:1 - - [27/Feb/2020:21:15:17 +0530] "GET /JSP(Project_No-02)/Login.css HTTP/1.1" 304 -
0:0:0:0:0:0:0:1 - - [27/Feb/2020:21:15:17 +0530] "GET /JSP(Project_No-02)/Login.html HTTP/1.1" 304 -
0:0:0:0:0:0:0:1 - - [27/Feb/2020:21:15:17 +0530] "GET /JSP(Project_No-02)/Login.css HTTP/1.1" 304 -
0:0:0:0:0:0:0:1 - - [27/Feb/2020:21:15:17 +0530] "GET /JSP(Project_No-02)/Login.html HTTP/1.1" 304 -
0:0:0:0:0:0:0:1 - - [27/Feb/2020:21:15:17 +0530] "GET /JSP(Project_No-02)/Login.css HTTP/1.1" 304 -
0:0:0:0:0:0:0:1 - - [27/Feb/2020:21:15:17 +0530] "GET /JSP(Project_No-02)/Login.html HTTP/1.1" 304 -
0:0:0:0:0:0:0:1 - - [27/Feb/2020:21:15:17 +0530] "GET /JSP(Project_No-02)/Login.css HTTP/1.1" 304 -
0:0:0:0:0:0:0:1 - - [27/Feb/2020:21:15:17 +0530] "GET /JSP(Project_No-02)/Login.html HTTP/1.1" 304 -
0:0:0:0:0:0:0:1 - - [27/Feb/2020:21:15:17 +0530] "GET /JSP(Project_No-02)/Login.css HTTP/1.1" 304 -
0:0:0:0:0:0:0:1 - - [27/Feb/2020:21:15:18 +0530] "GET /JSP(Project_No-02)/Login.html HTTP/1.1" 304 -
0:0:0:0:0:0:0:1 - - [27/Feb/2020:21:15:18 +0530] "GET /JSP(Project_No-02)/Login.css HTTP/1.1" 304 -
0:0:0:0:0:0:0:1 - - [27/Feb/2020:21:15:18 +0530] "GET /JSP(Project_No-02)/Login.html HTTP/1.1" 304 -
0:0:0:0:0:0:0:1 - - [27/Feb/2020:21:15:18 +0530] "GET /JSP(Project_No-02)/Login.css HTTP/1.1" 304 -
0:0:0:0:0:0:0:1 - - [27/Feb/2020:21:15:18 +0530] "GET /JSP(Project_No-02)/Login.html HTTP/1.1" 304 -
0:0:0:0:0:0:0:1 - - [27/Feb/2020:21:15:18 +0530] "GET /JSP(Project_No-02)/Login.css HTTP/1.1" 304 -
0:0:0:0:0:0:0:1 - - [27/Feb/2020:21:15:18 +0530] "GET /JSP(Project_No-02)/Login.html HTTP/1.1" 304 -
0:0:0:0:0:0:0:1 - - [27/Feb/2020:21:15:18 +0530] "GET /JSP(Project_No-02)/Login.css HTTP/1.1" 304 -
0:0:0:0:0:0:0:1 - - [27/Feb/2020:21:15:18 +0530] "GET /JSP(Project_No-02)/Login.html HTTP/1.1" 304 -
0:0:0:0:0:0:0:1 - - [27/Feb/2020:21:15:18 +0530] "GET /JSP(Project_No-02)/Login.css HTTP/1.1" 304 -
0:0:0:0:0:0:0:1 - - [27/Feb/2020:21:15:19 +0530] "GET /JSP(Project_No-02)/Login.html HTTP/1.1" 304 -
0:0:0:0:0:0:0:1 - - [27/Feb/2020:21:15:19 +0530] "GET /JSP(Project_No-02)/Login.css HTTP/1.1" 304 -
0:0:0:0:0:0:0:1 - - [27/Feb/2020:21:15:38 +0530] "GET /JSP(Project_No-02)/Login.html HTTP/1.1" 200 841
0:0:0:0:0:0:0:1 - - [27/Feb/2020:21:15:38 +0530] "GET /JSP(Project_No-02)/Login.css HTTP/1.1" 200 712
0:0:0:0:0:0:0:1 - - [27/Feb/2020:21:16:09 +0530] "GET /JSP(Project_No-02)/Login.html HTTP/1.1" 304 -
0:0:0:0:0:0:0:1 - - [27/Feb/2020:21:16:09 +0530] "GET /JSP(Project_No-02)/Login.css HTTP/1.1" 200 712
0:0:0:0:0:0:0:1 - - [27/Feb/2020:21:16:21 +0530] "GET /JSP(Project_No-02)/Login.html HTTP/1.1" 304 -
0:0:0:0:0:0:0:1 - - [27/Feb/2020:21:16:21 +0530] "GET /JSP(Project_No-02)/Login.css HTTP/1.1" 200 712
0:0:0:0:0:0:0:1 - - [27/Feb/2020:21:16:32 +0530] "GET /JSP(Project_No-02)/Login.html HTTP/1.1" 304 -
0:0:0:0:0:0:0:1 - - [27/Feb/2020:21:16:32 +0530] "GET /JSP(Project_No-02)/Login.css HTTP/1.1" 200 712
0:0:0:0:0:0:0:1 - - [27/Feb/2020:21:17:28 +0530] "GET /JSP(Project_No-02)/Login.html HTTP/1.1" 304 -
0:0:0:0:0:0:0:1 - - [27/Feb/2020:21:17:29 +0530] "GET /JSP(Project_No-02)/Login.css HTTP/1.1" 200 712
0:0:0:0:0:0:0:1 - - [27/Feb/2020:21:17:43 +0530] "GET /JSP(Project_No-02)/Login.html HTTP/1.1" 304 -
0:0:0:0:0:0:0:1 - - [27/Feb/2020:21:17:43 +0530] "GET /JSP(Project_No-02)/Login.css HTTP/1.1" 200 712
0:0:0:0:0:0:0:1 - - [27/Feb/2020:21:17:59 +0530] "GET /JSP(Project_No-02)/Login.html HTTP/1.1" 304 -
0:0:0:0:0:0:0:1 - - [27/Feb/2020:21:17:59 +0530] "GET /JSP(Project_No-02)/Login.css HTTP/1.1" 200 712
0:0:0:0:0:0:0:1 - - [27/Feb/2020:21:18:19 +0530] "GET /JSP(Project_No-02)/Login.html HTTP/1.1" 304 -
0:0:0:0:0:0:0:1 - - [27/Feb/2020:21:18:19 +0530] "GET /JSP(Project_No-02)/Login.css HTTP/1.1" 200 712
0:0:0:0:0:0:0:1 - - [27/Feb/2020:21:18:36 +0530] "GET /JSP(Project_No-02)/Login.html HTTP/1.1" 304 -
0:0:0:0:0:0:0:1 - - [27/Feb/2020:21:18:36 +0530] "GET /JSP(Project_No-02)/Login.css HTTP/1.1" 200 712
0:0:0:0:0:0:0:1 - - [27/Feb/2020:21:19:07 +0530] "GET /JSP(Project_No-02)/Login.html HTTP/1.1" 304 -
0:0:0:0:0:0:0:1 - - [27/Feb/2020:21:19:07 +0530] "GET /JSP(Project_No-02)/Login.css HTTP/1.1" 200 710
0:0:0:0:0:0:0:1 - - [27/Feb/2020:21:57:55 +0530] "GET /Advance_java_Demo/Create.html HTTP/1.1" 304 -
0:0:0:0:0:0:0:1 - - [27/Feb/2020:21:57:55 +0530] "GET /Advance_java_Demo/Create.js HTTP/1.1" 304 -
0:0:0:0:0:0:0:1 - - [27/Feb/2020:21:57:55 +0530] "GET /Advance_java_Demo/Create.css HTTP/1.1" 304 -
0:0:0:0:0:0:0:1 - - [27/Feb/2020:22:01:47 +0530] "GET /Advance_java_Demo/Create.html HTTP/1.1" 304 -
0:0:0:0:0:0:0:1 - - [27/Feb/2020:22:01:48 +0530] "GET /Advance_java_Demo/Create.html HTTP/1.1" 304 -
0:0:0:0:0:0:0:1 - - [27/Feb/2020:22:01:48 +0530] "GET /Advance_java_Demo/Create.html HTTP/1.1" 304 -
0:0:0:0:0:0:0:1 - - [27/Feb/2020:22:01:49 +0530] "GET /Advance_java_Demo/Create.html HTTP/1.1" 304 -
0:0:0:0:0:0:0:1 - - [27/Feb/2020:22:01:49 +0530] "GET /Advance_java_Demo/Create.html HTTP/1.1" 304 -
0:0:0:0:0:0:0:1 - - [27/Feb/2020:22:01:49 +0530] "GET /Advance_java_Demo/Create.html HTTP/1.1" 304 -
0:0:0:0:0:0:0:1 - - [27/Feb/2020:22:01:49 +0530] "GET /Advance_java_Demo/Create.html HTTP/1.1" 304 -
0:0:0:0:0:0:0:1 - - [27/Feb/2020:22:01:49 +0530] "GET /Advance_java_Demo/Create.html HTTP/1.1" 304 -
0:0:0:0:0:0:0:1 - - [27/Feb/2020:22:01:49 +0530] "GET /Advance_java_Demo/Create.html HTTP/1.1" 304 -
0:0:0:0:0:0:0:1 - - [27/Feb/2020:22:01:50 +0530] "GET /Advance_java_Demo/Create.html HTTP/1.1" 304 -
0:0:0:0:0:0:0:1 - - [27/Feb/2020:22:01:50 +0530] "GET /Advance_java_Demo/Create.html HTTP/1.1" 304 -
0:0:0:0:0:0:0:1 - - [27/Feb/2020:22:01:50 +0530] "GET /Advance_java_Demo/Create.html HTTP/1.1" 304 -
0:0:0:0:0:0:0:1 - - [27/Feb/2020:22:01:50 +0530] "GET /Advance_java_Demo/Create.html HTTP/1.1" 304 -
0:0:0:0:0:0:0:1 - - [27/Feb/2020:22:01:50 +0530] "GET /Advance_java_Demo/Create.html HTTP/1.1" 304 -
0:0:0:0:0:0:0:1 - - [27/Feb/2020:22:02:58 +0530] "GET /Advance_java_Demo/Create.html HTTP/1.1" 304 -
0:0:0:0:0:0:0:1 - - [27/Feb/2020:22:02:59 +0530] "GET /Advance_java_Demo/Create.html HTTP/1.1" 304 -
0:0:0:0:0:0:0:1 - - [27/Feb/2020:22:02:59 +0530] "GET /Advance_java_Demo/Create.html HTTP/1.1" 304 -
0:0:0:0:0:0:0:1 - - [27/Feb/2020:22:02:59 +0530] "GET /Advance_java_Demo/Create.html HTTP/1.1" 304 -
0:0:0:0:0:0:0:1 - - [27/Feb/2020:22:02:59 +0530] "GET /Advance_java_Demo/Create.html HTTP/1.1" 304 -
0:0:0:0:0:0:0:1 - - [27/Feb/2020:22:02:59 +0530] "GET /Advance_java_Demo/Create.html HTTP/1.1" 304 -
0:0:0:0:0:0:0:1 - - [27/Feb/2020:22:02:59 +0530] "GET /Advance_java_Demo/Create.html HTTP/1.1" 304 -
0:0:0:0:0:0:0:1 - - [27/Feb/2020:22:03:00 +0530] "GET /Advance_java_Demo/Create.html HTTP/1.1" 304 -
0:0:0:0:0:0:0:1 - - [27/Feb/2020:22:03:00 +0530] "GET /Advance_java_Demo/Create.html HTTP/1.1" 304 -
0:0:0:0:0:0:0:1 - - [27/Feb/2020:22:03:06 +0530] "GET /Advance_java_Demo/Login.html HTTP/1.1" 304 -
0:0:0:0:0:0:0:1 - - [27/Feb/2020:22:03:14 +0530] "GET /Advance_java_Demo/Login.html HTTP/1.1" 304 -
0:0:0:0:0:0:0:1 - - [27/Feb/2020:22:03:15 +0530] "GET /Advance_java_Demo/Login.html HTTP/1.1" 304 -
0:0:0:0:0:0:0:1 - - [27/Feb/2020:22:03:16 +0530] "GET /Advance_java_Demo/Login.html HTTP/1.1" 304 -
0:0:0:0:0:0:0:1 - - [27/Feb/2020:22:03:16 +0530] "GET /Advance_java_Demo/Login.html HTTP/1.1" 304 -
0:0:0:0:0:0:0:1 - - [27/Feb/2020:22:03:16 +0530] "GET /Advance_java_Demo/Login.html HTTP/1.1" 304 -
0:0:0:0:0:0:0:1 - - [27/Feb/2020:22:03:16 +0530] "GET /Advance_java_Demo/Login.html HTTP/1.1" 304 -
0:0:0:0:0:0:0:1 - - [27/Feb/2020:22:03:17 +0530] "GET /Advance_java_Demo/Login.html HTTP/1.1" 304 -
0:0:0:0:0:0:0:1 - - [27/Feb/2020:22:03:17 +0530] "GET /Advance_java_Demo/Login.html HTTP/1.1" 304 -
0:0:0:0:0:0:0:1 - - [27/Feb/2020:22:03:17 +0530] "GET /Advance_java_Demo/Login.html HTTP/1.1" 304 -
0:0:0:0:0:0:0:1 - - [27/Feb/2020:22:03:17 +0530] "GET /Advance_java_Demo/Login.html HTTP/1.1" 304 -
0:0:0:0:0:0:0:1 - - [27/Feb/2020:22:03:17 +0530] "GET /Advance_java_Demo/Login.html HTTP/1.1" 304 -
0:0:0:0:0:0:0:1 - - [27/Feb/2020:22:03:17 +0530] "GET /Advance_java_Demo/Login.html HTTP/1.1" 304 -
0:0:0:0:0:0:0:1 - - [27/Feb/2020:22:03:18 +0530] "GET /Advance_java_Demo/Login.html HTTP/1.1" 304 -
0:0:0:0:0:0:0:1 - - [27/Feb/2020:22:03:18 +0530] "GET /Advance_java_Demo/Login.html HTTP/1.1" 304 -
0:0:0:0:0:0:0:1 - - [27/Feb/2020:22:03:18 +0530] "GET /Advance_java_Demo/Login.html HTTP/1.1" 304 -
0:0:0:0:0:0:0:1 - - [27/Feb/2020:22:03:18 +0530] "GET /Advance_java_Demo/Login.html HTTP/1.1" 304 -
0:0:0:0:0:0:0:1 - - [27/Feb/2020:22:03:18 +0530] "GET /Advance_java_Demo/Login.html HTTP/1.1" 304 -
0:0:0:0:0:0:0:1 - - [27/Feb/2020:22:03:19 +0530] "GET /Advance_java_Demo/Login.html HTTP/1.1" 304 -
0:0:0:0:0:0:0:1 - - [27/Feb/2020:22:03:19 +0530] "GET /Advance_java_Demo/Login.html HTTP/1.1" 304 -
0:0:0:0:0:0:0:1 - - [27/Feb/2020:22:03:19 +0530] "GET /Advance_java_Demo/Login.html HTTP/1.1" 304 -
0:0:0:0:0:0:0:1 - - [27/Feb/2020:22:03:19 +0530] "GET /Advance_java_Demo/Login.html HTTP/1.1" 304 -
0:0:0:0:0:0:0:1 - - [27/Feb/2020:22:03:19 +0530] "GET /Advance_java_Demo/Login.html HTTP/1.1" 304 -
0:0:0:0:0:0:0:1 - - [27/Feb/2020:22:03:20 +0530] "GET /Advance_java_Demo/Login.html HTTP/1.1" 304 -
0:0:0:0:0:0:0:1 - - [27/Feb/2020:22:03:37 +0530] "POST /Advance_java_Demo/Login HTTP/1.1" 200 1163
0:0:0:0:0:0:0:1 - - [27/Feb/2020:22:03:41 +0530] "GET /Advance_java_Demo/Create.html HTTP/1.1" 304 -
0:0:0:0:0:0:0:1 - - [27/Feb/2020:22:03:42 +0530] "GET /Advance_java_Demo/Create.html HTTP/1.1" 304 -
0:0:0:0:0:0:0:1 - - [27/Feb/2020:22:03:42 +0530] "GET /Advance_java_Demo/Create.html HTTP/1.1" 304 -
0:0:0:0:0:0:0:1 - - [27/Feb/2020:22:03:43 +0530] "GET /Advance_java_Demo/Create.html HTTP/1.1" 304 -
0:0:0:0:0:0:0:1 - - [27/Feb/2020:22:03:43 +0530] "GET /Advance_java_Demo/Create.html HTTP/1.1" 304 -
0:0:0:0:0:0:0:1 - - [27/Feb/2020:22:03:43 +0530] "GET /Advance_java_Demo/Create.html HTTP/1.1" 304 -
0:0:0:0:0:0:0:1 - - [27/Feb/2020:22:03:43 +0530] "GET /Advance_java_Demo/Create.html HTTP/1.1" 304 -
0:0:0:0:0:0:0:1 - - [27/Feb/2020:22:04:14 +0530] "GET /Advance_java_Demo/Create.jsp HTTP/1.1" 200 1172
0:0:0:0:0:0:0:1 - - [27/Feb/2020:22:04:15 +0530] "GET /Advance_java_Demo/Create.css HTTP/1.1" 200 709
0:0:0:0:0:0:0:1 - - [27/Feb/2020:22:04:15 +0530] "GET /Advance_java_Demo/Create.js HTTP/1.1" 304 -
0:0:0:0:0:0:0:1 - - [27/Feb/2020:22:06:15 +0530] "GET /Advance_java_Demo/Login.html HTTP/1.1" 304 -
0:0:0:0:0:0:0:1 - - [27/Feb/2020:22:06:15 +0530] "GET /Advance_java_Demo/Login.html HTTP/1.1" 304 -
0:0:0:0:0:0:0:1 - - [27/Feb/2020:22:06:15 +0530] "GET /Advance_java_Demo/Login.html HTTP/1.1" 304 -
0:0:0:0:0:0:0:1 - - [27/Feb/2020:22:06:15 +0530] "GET /Advance_java_Demo/Login.html HTTP/1.1" 304 -
0:0:0:0:0:0:0:1 - - [27/Feb/2020:22:06:15 +0530] "GET /Advance_java_Demo/Login.html HTTP/1.1" 304 -
0:0:0:0:0:0:0:1 - - [27/Feb/2020:22:06:16 +0530] "GET /Advance_java_Demo/Login.html HTTP/1.1" 304 -
0:0:0:0:0:0:0:1 - - [27/Feb/2020:22:06:16 +0530] "GET /Advance_java_Demo/Login.html HTTP/1.1" 304 -
0:0:0:0:0:0:0:1 - - [27/Feb/2020:22:06:16 +0530] "GET /Advance_java_Demo/Login.html HTTP/1.1" 304 -
0:0:0:0:0:0:0:1 - - [27/Feb/2020:22:06:16 +0530] "GET /Advance_java_Demo/Login.html HTTP/1.1" 304 -
0:0:0:0:0:0:0:1 - - [27/Feb/2020:22:06:16 +0530] "GET /Advance_java_Demo/Login.html HTTP/1.1" 304 -
0:0:0:0:0:0:0:1 - - [27/Feb/2020:22:06:16 +0530] "GET /Advance_java_Demo/Login.html HTTP/1.1" 304 -
0:0:0:0:0:0:0:1 - - [27/Feb/2020:22:06:17 +0530] "GET /Advance_java_Demo/Login.html HTTP/1.1" 304 -
0:0:0:0:0:0:0:1 - - [27/Feb/2020:22:06:17 +0530] "GET /Advance_java_Demo/Login.html HTTP/1.1" 304 -
0:0:0:0:0:0:0:1 - - [27/Feb/2020:22:06:17 +0530] "GET /Advance_java_Demo/Login.html HTTP/1.1" 304 -
0:0:0:0:0:0:0:1 - - [27/Feb/2020:22:06:17 +0530] "GET /Advance_java_Demo/Login.html HTTP/1.1" 304 -
0:0:0:0:0:0:0:1 - - [27/Feb/2020:22:06:17 +0530] "GET /Advance_java_Demo/Login.html HTTP/1.1" 304 -
0:0:0:0:0:0:0:1 - - [27/Feb/2020:22:06:17 +0530] "GET /Advance_java_Demo/Login.html HTTP/1.1" 304 -
0:0:0:0:0:0:0:1 - - [27/Feb/2020:22:06:18 +0530] "GET /Advance_java_Demo/Login.html HTTP/1.1" 304 -
0:0:0:0:0:0:0:1 - - [27/Feb/2020:22:06:21 +0530] "GET /Advance_java_Demo/Login.html HTTP/1.1" 304 -
0:0:0:0:0:0:0:1 - - [27/Feb/2020:22:06:36 +0530] "POST /Advance_java_Demo/Login HTTP/1.1" 200 1163
0:0:0:0:0:0:0:1 - - [27/Feb/2020:22:07:47 +0530] "POST /Advance_java_Demo/Login HTTP/1.1" 200 1163
0:0:0:0:0:0:0:1 - - [27/Feb/2020:22:07:47 +0530] "GET /Advance_java_Demo/MainPage.css HTTP/1.1" 304 -
0:0:0:0:0:0:0:1 - - [27/Feb/2020:22:07:49 +0530] "GET /Advance_java_Demo/Create.html HTTP/1.1" 200 1057
0:0:0:0:0:0:0:1 - - [27/Feb/2020:22:09:38 +0530] "POST /Advance_java_Demo/Login HTTP/1.1" 200 1160
0:0:0:0:0:0:0:1 - - [27/Feb/2020:22:09:39 +0530] "GET /Advance_java_Demo/Create.jsp HTTP/1.1" 200 1183
0:0:0:0:0:0:0:1 - - [27/Feb/2020:22:10:27 +0530] "GET /Advance_java_Demo/Create.jsp HTTP/1.1" 200 1204
0:0:0:0:0:0:0:1 - - [27/Feb/2020:22:10:27 +0530] "GET /Advance_java_Demo/Create.css HTTP/1.1" 304 -
0:0:0:0:0:0:0:1 - - [27/Feb/2020:22:10:27 +0530] "GET /Advance_java_Demo/Create.js HTTP/1.1" 304 -
0:0:0:0:0:0:0:1 - - [27/Feb/2020:22:52:54 +0530] "GET /Advance_java_Demo/Update.html HTTP/1.1" 200 824
0:0:0:0:0:0:0:1 - - [27/Feb/2020:22:52:54 +0530] "GET /Advance_java_Demo/Update.css HTTP/1.1" 304 -
0:0:0:0:0:0:0:1 - - [27/Feb/2020:22:52:56 +0530] "GET /Advance_java_Demo/Update.html HTTP/1.1" 304 -
0:0:0:0:0:0:0:1 - - [27/Feb/2020:22:52:57 +0530] "GET /Advance_java_Demo/Update.html HTTP/1.1" 304 -
0:0:0:0:0:0:0:1 - - [27/Feb/2020:22:52:57 +0530] "GET /Advance_java_Demo/Update.html HTTP/1.1" 304 -
0:0:0:0:0:0:0:1 - - [27/Feb/2020:22:57:00 +0530] "POST /Advance_java_Demo/DisplayEmp HTTP/1.1" 200 474
127.0.0.1 - - [27/Feb/2020:22:59:40 +0530] "GET / HTTP/1.1" 404 1074
0:0:0:0:0:0:0:1 - - [27/Feb/2020:23:00:03 +0530] "POST /Advance_java_Demo/Login HTTP/1.1" 200 1160
0:0:0:0:0:0:0:1 - - [27/Feb/2020:23:00:05 +0530] "GET /Advance_java_Demo/Create.jsp HTTP/1.1" 200 1204
0:0:0:0:0:0:0:1 - - [27/Feb/2020:23:00:09 +0530] "GET /Advance_java_Demo/MainPage.html HTTP/1.1" 200 921
0:0:0:0:0:0:0:1 - - [27/Feb/2020:23:00:12 +0530] "POST /Advance_java_Demo/DisplayEmp HTTP/1.1" 200 538
0:0:0:0:0:0:0:1 - - [27/Feb/2020:23:00:20 +0530] "GET /Advance_java_Demo/Update.html HTTP/1.1" 200 824
0:0:0:0:0:0:0:1 - - [27/Feb/2020:23:00:20 +0530] "GET /Advance_java_Demo/Update.css HTTP/1.1" 304 -
0:0:0:0:0:0:0:1 - - [27/Feb/2020:23:00:25 +0530] "GET /Advance_java_Demo/Delete.html HTTP/1.1" 200 712
0:0:0:0:0:0:0:1 - - [27/Feb/2020:23:00:25 +0530] "GET /Advance_java_Demo/Delete.css HTTP/1.1" 304 -
127.0.0.1 - - [27/Feb/2020:23:11:18 +0530] "GET / HTTP/1.1" 404 1074
0:0:0:0:0:0:0:1 - - [27/Feb/2020:23:11:22 +0530] "GET /Advance_java_Demo/Update.jsp HTTP/1.1" 200 971
0:0:0:0:0:0:0:1 - - [27/Feb/2020:23:11:51 +0530] "POST /Advance_java_Demo/DisplayEmp HTTP/1.1" 200 530
0:0:0:0:0:0:0:1 - - [27/Feb/2020:23:14:04 +0530] "GET /Advance_java_Demo/MainPage.jsp HTTP/1.1" 200 1164
0:0:0:0:0:0:0:1 - - [27/Feb/2020:23:14:16 +0530] "GET /Advance_java_Demo/MainPage.jsp HTTP/1.1" 200 1151
0:0:0:0:0:0:0:1 - - [27/Feb/2020:23:14:26 +0530] "GET /Advance_java_Demo/Update.jsp HTTP/1.1" 200 958
0:0:0:0:0:0:0:1 - - [27/Feb/2020:23:14:31 +0530] "GET /Advance_java_Demo/Delete.jsp HTTP/1.1" 200 846
0:0:0:0:0:0:0:1 - - [27/Feb/2020:23:14:31 +0530] "GET /Advance_java_Demo/Delete.css HTTP/1.1" 304 -
0:0:0:0:0:0:0:1 - - [27/Feb/2020:23:14:36 +0530] "POST /Advance_java_Demo/DisplayEmp HTTP/1.1" 200 521
0:0:0:0:0:0:0:1 - - [27/Feb/2020:23:14:40 +0530] "GET /Advance_java_Demo/Update.jsp HTTP/1.1" 200 958
0:0:0:0:0:0:0:1 - - [27/Feb/2020:23:16:25 +0530] "GET /Advance_java_Demo/MainPage.jsp HTTP/1.1" 200 1160
0:0:0:0:0:0:0:1 - - [27/Feb/2020:23:16:25 +0530] "GET /Advance_java_Demo/MainPage.css HTTP/1.1" 304 -
0:0:0:0:0:0:0:1 - - [27/Feb/2020:23:16:25 +0530] "GET /Advance_java_Demo/Img/phonepe.jpg HTTP/1.1" 304 -
0:0:0:0:0:0:0:1 - - [27/Feb/2020:23:16:28 +0530] "GET /Advance_java_Demo/Update.jsp HTTP/1.1" 200 971
0:0:0:0:0:0:0:1 - - [27/Feb/2020:23:16:32 +0530] "GET /Advance_java_Demo/Delete.jsp HTTP/1.1" 200 859
0:0:0:0:0:0:0:1 - - [27/Feb/2020:23:16:45 +0530] "GET /Advance_java_Demo/MainPage.jsp HTTP/1.1" 200 1147
0:0:0:0:0:0:0:1 - - [27/Feb/2020:23:16:47 +0530] "GET /Advance_java_Demo/Create.jsp HTTP/1.1" 200 1191
0:0:0:0:0:0:0:1 - - [27/Feb/2020:23:16:51 +0530] "POST /Advance_java_Demo/DisplayEmp HTTP/1.1" 200 521
0:0:0:0:0:0:0:1 - - [27/Feb/2020:23:16:53 +0530] "GET /Advance_java_Demo/Update.jsp HTTP/1.1" 200 958
0:0:0:0:0:0:0:1 - - [27/Feb/2020:23:16:56 +0530] "GET /Advance_java_Demo/Delete.jsp HTTP/1.1" 200 846
0:0:0:0:0:0:0:1 - - [27/Feb/2020:23:17:26 +0530] "GET /Advance_java_Demo/Login.html HTTP/1.1" 304 -
0:0:0:0:0:0:0:1 - - [27/Feb/2020:23:17:43 +0530] "POST /Advance_java_Demo/Login HTTP/1.1" 200 1160
0:0:0:0:0:0:0:1 - - [27/Feb/2020:23:17:46 +0530] "GET /Advance_java_Demo/Create.jsp HTTP/1.1" 200 1204
0:0:0:0:0:0:0:1 - - [27/Feb/2020:23:17:49 +0530] "GET /Advance_java_Demo/MainPage.html HTTP/1.1" 200 921
0:0:0:0:0:0:0:1 - - [27/Feb/2020:23:17:51 +0530] "POST /Advance_java_Demo/DisplayEmp HTTP/1.1" 200 530
0:0:0:0:0:0:0:1 - - [27/Feb/2020:23:17:57 +0530] "GET /Advance_java_Demo/Delete.html HTTP/1.1" 200 712
0:0:0:0:0:0:0:1 - - [27/Feb/2020:23:20:18 +0530] "POST /Advance_java_Demo/Login HTTP/1.1" 200 1164
0:0:0:0:0:0:0:1 - - [27/Feb/2020:23:20:21 +0530] "GET /Advance_java_Demo/Create.jsp HTTP/1.1" 200 1204
0:0:0:0:0:0:0:1 - - [27/Feb/2020:23:20:24 +0530] "POST /Advance_java_Demo/DisplayEmp HTTP/1.1" 200 530
0:0:0:0:0:0:0:1 - - [27/Feb/2020:23:20:27 +0530] "GET /Advance_java_Demo/Update.jsp HTTP/1.1" 200 971
0:0:0:0:0:0:0:1 - - [27/Feb/2020:23:20:53 +0530] "GET /Advance_java_Demo/Login.html HTTP/1.1" 200 1177
0:0:0:0:0:0:0:1 - - [27/Feb/2020:23:20:54 +0530] "GET /Advance_java_Demo/Login.css HTTP/1.1" 200 709
0:0:0:0:0:0:0:1 - - [27/Feb/2020:23:21:06 +0530] "POST /Advance_java_Demo/Login HTTP/1.1" 200 1164
0:0:0:0:0:0:0:1 - - [27/Feb/2020:23:21:06 +0530] "GET /Advance_java_Demo/Img/phonepe.jpg HTTP/1.1" 200 6291
0:0:0:0:0:0:0:1 - - [27/Feb/2020:23:21:06 +0530] "GET /Advance_java_Demo/MainPage.css HTTP/1.1" 200 359
0:0:0:0:0:0:0:1 - - [27/Feb/2020:23:21:08 +0530] "GET /Advance_java_Demo/Create.jsp HTTP/1.1" 200 1204
0:0:0:0:0:0:0:1 - - [27/Feb/2020:23:21:08 +0530] "GET /Advance_java_Demo/Create.css HTTP/1.1" 200 709
0:0:0:0:0:0:0:1 - - [27/Feb/2020:23:21:08 +0530] "GET /Advance_java_Demo/Create.js HTTP/1.1" 200 71
0:0:0:0:0:0:0:1 - - [27/Feb/2020:23:21:12 +0530] "POST /Advance_java_Demo/DisplayEmp HTTP/1.1" 200 530
0:0:0:0:0:0:0:1 - - [27/Feb/2020:23:21:15 +0530] "GET /Advance_java_Demo/Update.jsp HTTP/1.1" 200 971
0:0:0:0:0:0:0:1 - - [27/Feb/2020:23:21:15 +0530] "GET /Advance_java_Demo/Update.css HTTP/1.1" 200 709
0:0:0:0:0:0:0:1 - - [27/Feb/2020:23:21:24 +0530] "GET /Advance_java_Demo/Delete.jsp HTTP/1.1" 200 859
0:0:0:0:0:0:0:1 - - [27/Feb/2020:23:21:24 +0530] "GET /Advance_java_Demo/Delete.css HTTP/1.1" 200 727
0:0:0:0:0:0:0:1 - - [27/Feb/2020:23:24:17 +0530] "GET /JSP(Project_No-02)/HomePageFrameSet.html HTTP/1.1" 304 -
0:0:0:0:0:0:0:1 - - [27/Feb/2020:23:24:39 +0530] "GET /JSP(Project_No-02)/Header.jsp HTTP/1.1" 200 475
0:0:0:0:0:0:0:1 - - [27/Feb/2020:23:24:44 +0530] "GET /JSP(Project_No-02)/LastSeen HTTP/1.1" 200 595
0:0:0:0:0:0:0:1 - - [27/Feb/2020:23:24:44 +0530] "GET /JSP(Project_No-02)/Display.jsp HTTP/1.1" 200 1727
0:0:0:0:0:0:0:1 - - [27/Feb/2020:23:24:47 +0530] "GET /JSP(Project_No-02)/Header.jsp HTTP/1.1" 200 475
0:0:0:0:0:0:0:1 - - [27/Feb/2020:23:24:47 +0530] "GET /JSP(Project_No-02)/Display.jsp HTTP/1.1" 200 1727
0:0:0:0:0:0:0:1 - - [27/Feb/2020:23:24:47 +0530] "GET /JSP(Project_No-02)/LastSeen HTTP/1.1" 200 595
0:0:0:0:0:0:0:1 - - [27/Feb/2020:23:36:16 +0530] "GET /JSP(Project_No-02)/Edit.jsp?id=01 HTTP/1.1" 200 3798
0:0:0:0:0:0:0:1 - - [27/Feb/2020:23:36:37 +0530] "GET /JSP(Project_No-02)/DeleteEmp?id=01 HTTP/1.1" 200 1334
0:0:0:0:0:0:0:1 - - [27/Feb/2020:23:36:48 +0530] "GET /JSP(Project_No-02)/HomePageFrameSet.html HTTP/1.1" 304 -
0:0:0:0:0:0:0:1 - - [27/Feb/2020:23:36:49 +0530] "GET /JSP(Project_No-02)/Header.jsp HTTP/1.1" 200 475
0:0:0:0:0:0:0:1 - - [27/Feb/2020:23:36:49 +0530] "GET /JSP(Project_No-02)/Display.jsp HTTP/1.1" 200 1305
0:0:0:0:0:0:0:1 - - [27/Feb/2020:23:36:49 +0530] "GET /JSP(Project_No-02)/LastSeen HTTP/1.1" 200 450
0:0:0:0:0:0:0:1 - - [27/Feb/2020:23:37:01 +0530] "GET /JSP(Project_No-02)/CreatePage.jsp HTTP/1.1" 200 3742
0:0:0:0:0:0:0:1 - - [27/Feb/2020:23:37:40 +0530] "POST /JSP(Project_No-02)/InsertServlet HTTP/1.1" 200 3801
0:0:0:0:0:0:0:1 - - [27/Feb/2020:23:37:43 +0530] "GET /JSP(Project_No-02)/HomePageFrameSet.html HTTP/1.1" 304 -
0:0:0:0:0:0:0:1 - - [27/Feb/2020:23:37:43 +0530] "GET /JSP(Project_No-02)/Header.jsp HTTP/1.1" 200 475
0:0:0:0:0:0:0:1 - - [27/Feb/2020:23:37:44 +0530] "GET /JSP(Project_No-02)/Display.jsp HTTP/1.1" 200 1727
0:0:0:0:0:0:0:1 - - [27/Feb/2020:23:37:44 +0530] "GET /JSP(Project_No-02)/LastSeen HTTP/1.1" 200 594
0:0:0:0:0:0:0:1 - - [27/Feb/2020:23:46:31 +0530] "GET /Advance_java_Demo/Update.html HTTP/1.1" 304 -
0:0:0:0:0:0:0:1 - - [27/Feb/2020:23:46:33 +0530] "GET /Advance_java_Demo/Update.html HTTP/1.1" 304 -
0:0:0:0:0:0:0:1 - - [27/Feb/2020:23:46:33 +0530] "GET /Advance_java_Demo/Update.html HTTP/1.1" 304 -
0:0:0:0:0:0:0:1 - - [27/Feb/2020:23:46:34 +0530] "GET /Advance_java_Demo/Update.html HTTP/1.1" 304 -
0:0:0:0:0:0:0:1 - - [27/Feb/2020:23:46:34 +0530] "GET /Advance_java_Demo/Update.html HTTP/1.1" 304 -
0:0:0:0:0:0:0:1 - - [27/Feb/2020:23:46:34 +0530] "GET /Advance_java_Demo/Update.html HTTP/1.1" 304 -
0:0:0:0:0:0:0:1 - - [27/Feb/2020:23:46:34 +0530] "GET /Advance_java_Demo/Update.html HTTP/1.1" 304 -
0:0:0:0:0:0:0:1 - - [27/Feb/2020:23:46:34 +0530] "GET /Advance_java_Demo/Update.html HTTP/1.1" 304 -
0:0:0:0:0:0:0:1 - - [27/Feb/2020:23:46:34 +0530] "GET /Advance_java_Demo/Update.html HTTP/1.1" 304 -
0:0:0:0:0:0:0:1 - - [27/Feb/2020:23:46:35 +0530] "GET /Advance_java_Demo/Update.html HTTP/1.1" 304 -
0:0:0:0:0:0:0:1 - - [27/Feb/2020:23:46:35 +0530] "GET /Advance_java_Demo/Update.html HTTP/1.1" 304 -
0:0:0:0:0:0:0:1 - - [27/Feb/2020:23:46:35 +0530] "GET /Advance_java_Demo/Update.html HTTP/1.1" 304 -
0:0:0:0:0:0:0:1 - - [27/Feb/2020:23:46:35 +0530] "GET /Advance_java_Demo/Update.html HTTP/1.1" 304 -
0:0:0:0:0:0:0:1 - - [27/Feb/2020:23:46:35 +0530] "GET /Advance_java_Demo/Update.html HTTP/1.1" 304 -
0:0:0:0:0:0:0:1 - - [27/Feb/2020:23:46:36 +0530] "GET /Advance_java_Demo/Update.html HTTP/1.1" 304 -
0:0:0:0:0:0:0:1 - - [27/Feb/2020:23:46:36 +0530] "GET /Advance_java_Demo/Update.html HTTP/1.1" 304 -
0:0:0:0:0:0:0:1 - - [27/Feb/2020:23:46:36 +0530] "GET /Advance_java_Demo/Update.html HTTP/1.1" 304 -
0:0:0:0:0:0:0:1 - - [27/Feb/2020:23:46:36 +0530] "GET /Advance_java_Demo/Update.html HTTP/1.1" 304 -
0:0:0:0:0:0:0:1 - - [27/Feb/2020:23:46:37 +0530] "GET /Advance_java_Demo/Update.html HTTP/1.1" 304 -
0:0:0:0:0:0:0:1 - - [27/Feb/2020:23:46:38 +0530] "GET /Advance_java_Demo/Update.html HTTP/1.1" 304 -
0:0:0:0:0:0:0:1 - - [27/Feb/2020:23:46:39 +0530] "GET /Advance_java_Demo/Update.html HTTP/1.1" 304 -
0:0:0:0:0:0:0:1 - - [27/Feb/2020:23:46:39 +0530] "GET /Advance_java_Demo/Update.html HTTP/1.1" 304 -
0:0:0:0:0:0:0:1 - - [27/Feb/2020:23:46:39 +0530] "GET /Advance_java_Demo/Update.html HTTP/1.1" 304 -
0:0:0:0:0:0:0:1 - - [27/Feb/2020:23:46:39 +0530] "GET /Advance_java_Demo/Update.html HTTP/1.1" 304 -
0:0:0:0:0:0:0:1 - - [27/Feb/2020:23:46:39 +0530] "GET /Advance_java_Demo/Update.html HTTP/1.1" 304 -
0:0:0:0:0:0:0:1 - - [27/Feb/2020:23:46:39 +0530] "GET /Advance_java_Demo/Update.html HTTP/1.1" 304 -
0:0:0:0:0:0:0:1 - - [27/Feb/2020:23:46:40 +0530] "GET /Advance_java_Demo/Update.html HTTP/1.1" 304 -
0:0:0:0:0:0:0:1 - - [27/Feb/2020:23:46:40 +0530] "GET /Advance_java_Demo/Update.html HTTP/1.1" 304 -
0:0:0:0:0:0:0:1 - - [27/Feb/2020:23:46:40 +0530] "GET /Advance_java_Demo/Update.html HTTP/1.1" 304 -
0:0:0:0:0:0:0:1 - - [27/Feb/2020:23:46:58 +0530] "GET /Advance_java_Demo/Update.html HTTP/1.1" 304 -
0:0:0:0:0:0:0:1 - - [27/Feb/2020:23:47:12 +0530] "GET /Advance_java_Demo/Login.html HTTP/1.1" 304 -
0:0:0:0:0:0:0:1 - - [27/Feb/2020:23:47:28 +0530] "POST /Advance_java_Demo/Login HTTP/1.1" 200 1164
0:0:0:0:0:0:0:1 - - [27/Feb/2020:23:49:06 +0530] "GET /Advance_java_Demo/Create.jsp HTTP/1.1" 200 1204
0:0:0:0:0:0:0:1 - - [27/Feb/2020:23:54:02 +0530] "GET /Advance_java_Demo/Login.html HTTP/1.1" 304 -
0:0:0:0:0:0:0:1 - - [27/Feb/2020:23:54:02 +0530] "GET /Advance_java_Demo/Login.html HTTP/1.1" 304 -
0:0:0:0:0:0:0:1 - - [27/Feb/2020:23:54:02 +0530] "GET /Advance_java_Demo/Login.html HTTP/1.1" 304 -
0:0:0:0:0:0:0:1 - - [27/Feb/2020:23:54:03 +0530] "GET /Advance_java_Demo/Login.html HTTP/1.1" 304 -
0:0:0:0:0:0:0:1 - - [27/Feb/2020:23:54:03 +0530] "GET /Advance_java_Demo/Login.html HTTP/1.1" 304 -
0:0:0:0:0:0:0:1 - - [27/Feb/2020:23:54:24 +0530] "GET /Advance_java_Demo/Login.html HTTP/1.1" 200 1177
0:0:0:0:0:0:0:1 - - [27/Feb/2020:23:54:24 +0530] "GET /Advance_java_Demo/Login.css HTTP/1.1" 200 709
0:0:0:0:0:0:0:1 - - [27/Feb/2020:23:54:45 +0530] "POST /Advance_java_Demo/Login HTTP/1.1" 200 1164
0:0:0:0:0:0:0:1 - - [27/Feb/2020:23:54:45 +0530] "GET /Advance_java_Demo/MainPage.css HTTP/1.1" 200 359
0:0:0:0:0:0:0:1 - - [27/Feb/2020:23:54:45 +0530] "GET /Advance_java_Demo/Img/phonepe.jpg HTTP/1.1" 200 6291
0:0:0:0:0:0:0:1 - - [27/Feb/2020:23:54:50 +0530] "GET /Advance_java_Demo/Create.jsp HTTP/1.1" 200 1168
0:0:0:0:0:0:0:1 - - [27/Feb/2020:23:54:50 +0530] "GET /Advance_java_Demo/Create.js HTTP/1.1" 200 71
0:0:0:0:0:0:0:1 - - [27/Feb/2020:23:54:50 +0530] "GET /Advance_java_Demo/Create.css HTTP/1.1" 200 810
0:0:0:0:0:0:0:1 - - [27/Feb/2020:23:55:33 +0530] "GET /Advance_java_Demo/Create.jsp HTTP/1.1" 200 1168
0:0:0:0:0:0:0:1 - - [27/Feb/2020:23:55:33 +0530] "GET /Advance_java_Demo/Create.css HTTP/1.1" 200 811
0:0:0:0:0:0:0:1 - - [27/Feb/2020:23:56:01 +0530] "GET /Advance_java_Demo/Create.jsp HTTP/1.1" 200 1168
0:0:0:0:0:0:0:1 - - [27/Feb/2020:23:56:01 +0530] "GET /Advance_java_Demo/Create.css HTTP/1.1" 200 830
0:0:0:0:0:0:0:1 - - [27/Feb/2020:23:56:14 +0530] "GET /Advance_java_Demo/Create.jsp HTTP/1.1" 200 1168
0:0:0:0:0:0:0:1 - - [27/Feb/2020:23:56:14 +0530] "GET /Advance_java_Demo/Create.css HTTP/1.1" 200 830
0:0:0:0:0:0:0:1 - - [27/Feb/2020:23:56:15 +0530] "GET /Advance_java_Demo/Create.jsp HTTP/1.1" 200 1168
0:0:0:0:0:0:0:1 - - [27/Feb/2020:23:56:15 +0530] "GET /Advance_java_Demo/Create.css HTTP/1.1" 304 -
0:0:0:0:0:0:0:1 - - [27/Feb/2020:23:56:15 +0530] "GET /Advance_java_Demo/Create.jsp HTTP/1.1" 200 1168
0:0:0:0:0:0:0:1 - - [27/Feb/2020:23:56:15 +0530] "GET /Advance_java_Demo/Create.css HTTP/1.1" 304 -
0:0:0:0:0:0:0:1 - - [27/Feb/2020:23:56:15 +0530] "GET /Advance_java_Demo/Create.jsp HTTP/1.1" 200 1168
0:0:0:0:0:0:0:1 - - [27/Feb/2020:23:56:15 +0530] "GET /Advance_java_Demo/Create.css HTTP/1.1" 304 -
0:0:0:0:0:0:0:1 - - [27/Feb/2020:23:56:15 +0530] "GET /Advance_java_Demo/Create.jsp HTTP/1.1" 200 1168
0:0:0:0:0:0:0:1 - - [27/Feb/2020:23:56:15 +0530] "GET /Advance_java_Demo/Create.css HTTP/1.1" 304 -
0:0:0:0:0:0:0:1 - - [27/Feb/2020:23:56:16 +0530] "GET /Advance_java_Demo/Create.jsp HTTP/1.1" 200 1168
0:0:0:0:0:0:0:1 - - [27/Feb/2020:23:56:16 +0530] "GET /Advance_java_Demo/Create.css HTTP/1.1" 304 -
0:0:0:0:0:0:0:1 - - [27/Feb/2020:23:56:16 +0530] "GET /Advance_java_Demo/Create.jsp HTTP/1.1" 200 1168
0:0:0:0:0:0:0:1 - - [27/Feb/2020:23:56:16 +0530] "GET /Advance_java_Demo/Create.css HTTP/1.1" 304 -
0:0:0:0:0:0:0:1 - - [27/Feb/2020:23:56:16 +0530] "GET /Advance_java_Demo/Create.jsp HTTP/1.1" 200 1168
0:0:0:0:0:0:0:1 - - [27/Feb/2020:23:56:16 +0530] "GET /Advance_java_Demo/Create.css HTTP/1.1" 304 -
0:0:0:0:0:0:0:1 - - [27/Feb/2020:23:56:16 +0530] "GET /Advance_java_Demo/Create.jsp HTTP/1.1" 200 1168
0:0:0:0:0:0:0:1 - - [27/Feb/2020:23:56:16 +0530] "GET /Advance_java_Demo/Create.css HTTP/1.1" 304 -
0:0:0:0:0:0:0:1 - - [27/Feb/2020:23:56:17 +0530] "GET /Advance_java_Demo/Create.jsp HTTP/1.1" 200 1168
0:0:0:0:0:0:0:1 - - [27/Feb/2020:23:56:17 +0530] "GET /Advance_java_Demo/Create.css HTTP/1.1" 304 -
0:0:0:0:0:0:0:1 - - [27/Feb/2020:23:56:17 +0530] "GET /Advance_java_Demo/Create.jsp HTTP/1.1" 200 1168
0:0:0:0:0:0:0:1 - - [27/Feb/2020:23:56:17 +0530] "GET /Advance_java_Demo/Create.css HTTP/1.1" 304 -
0:0:0:0:0:0:0:1 - - [27/Feb/2020:23:56:17 +0530] "GET /Advance_java_Demo/Create.jsp HTTP/1.1" 200 1168
0:0:0:0:0:0:0:1 - - [27/Feb/2020:23:56:17 +0530] "GET /Advance_java_Demo/Create.css HTTP/1.1" 304 -
0:0:0:0:0:0:0:1 - - [27/Feb/2020:23:56:17 +0530] "GET /Advance_java_Demo/Create.jsp HTTP/1.1" 200 1168
0:0:0:0:0:0:0:1 - - [27/Feb/2020:23:56:17 +0530] "GET /Advance_java_Demo/Create.css HTTP/1.1" 304 -
0:0:0:0:0:0:0:1 - - [27/Feb/2020:23:56:18 +0530] "GET /Advance_java_Demo/Create.jsp HTTP/1.1" 200 1168
0:0:0:0:0:0:0:1 - - [27/Feb/2020:23:56:18 +0530] "GET /Advance_java_Demo/Create.css HTTP/1.1" 304 -
0:0:0:0:0:0:0:1 - - [27/Feb/2020:23:56:18 +0530] "GET /Advance_java_Demo/Create.jsp HTTP/1.1" 200 1168
0:0:0:0:0:0:0:1 - - [27/Feb/2020:23:56:18 +0530] "GET /Advance_java_Demo/Create.css HTTP/1.1" 304 -
0:0:0:0:0:0:0:1 - - [27/Feb/2020:23:56:18 +0530] "GET /Advance_java_Demo/Create.jsp HTTP/1.1" 200 1168
0:0:0:0:0:0:0:1 - - [27/Feb/2020:23:56:18 +0530] "GET /Advance_java_Demo/Create.css HTTP/1.1" 304 -
0:0:0:0:0:0:0:1 - - [27/Feb/2020:23:56:18 +0530] "GET /Advance_java_Demo/Create.jsp HTTP/1.1" 200 1168
0:0:0:0:0:0:0:1 - - [27/Feb/2020:23:56:18 +0530] "GET /Advance_java_Demo/Create.css HTTP/1.1" 304 -
0:0:0:0:0:0:0:1 - - [27/Feb/2020:23:56:18 +0530] "GET /Advance_java_Demo/Create.jsp HTTP/1.1" 200 1168
0:0:0:0:0:0:0:1 - - [27/Feb/2020:23:56:18 +0530] "GET /Advance_java_Demo/Create.css HTTP/1.1" 304 -
0:0:0:0:0:0:0:1 - - [27/Feb/2020:23:56:19 +0530] "GET /Advance_java_Demo/Create.jsp HTTP/1.1" 200 1168
0:0:0:0:0:0:0:1 - - [27/Feb/2020:23:56:19 +0530] "GET /Advance_java_Demo/Create.css HTTP/1.1" 304 -
0:0:0:0:0:0:0:1 - - [27/Feb/2020:23:56:19 +0530] "GET /Advance_java_Demo/Create.jsp HTTP/1.1" 200 1168
0:0:0:0:0:0:0:1 - - [27/Feb/2020:23:56:19 +0530] "GET /Advance_java_Demo/Create.css HTTP/1.1" 304 -
0:0:0:0:0:0:0:1 - - [27/Feb/2020:23:56:19 +0530] "GET /Advance_java_Demo/Create.jsp HTTP/1.1" 200 1168
0:0:0:0:0:0:0:1 - - [27/Feb/2020:23:56:19 +0530] "GET /Advance_java_Demo/Create.css HTTP/1.1" 304 -
0:0:0:0:0:0:0:1 - - [27/Feb/2020:23:56:19 +0530] "GET /Advance_java_Demo/Create.jsp HTTP/1.1" 200 1168
0:0:0:0:0:0:0:1 - - [27/Feb/2020:23:56:19 +0530] "GET /Advance_java_Demo/Create.css HTTP/1.1" 304 -
0:0:0:0:0:0:0:1 - - [27/Feb/2020:23:56:19 +0530] "GET /Advance_java_Demo/Create.jsp HTTP/1.1" 200 1168
0:0:0:0:0:0:0:1 - - [27/Feb/2020:23:56:19 +0530] "GET /Advance_java_Demo/Create.css HTTP/1.1" 304 -
0:0:0:0:0:0:0:1 - - [27/Feb/2020:23:56:19 +0530] "GET /Advance_java_Demo/Create.jsp HTTP/1.1" 200 1168
0:0:0:0:0:0:0:1 - - [27/Feb/2020:23:56:20 +0530] "GET /Advance_java_Demo/Create.css HTTP/1.1" 304 -
0:0:0:0:0:0:0:1 - - [27/Feb/2020:23:56:20 +0530] "GET /Advance_java_Demo/Create.jsp HTTP/1.1" 200 1168
0:0:0:0:0:0:0:1 - - [27/Feb/2020:23:56:20 +0530] "GET /Advance_java_Demo/Create.css HTTP/1.1" 304 -
0:0:0:0:0:0:0:1 - - [27/Feb/2020:23:56:20 +0530] "GET /Advance_java_Demo/Create.jsp HTTP/1.1" 200 1168
0:0:0:0:0:0:0:1 - - [27/Feb/2020:23:56:20 +0530] "GET /Advance_java_Demo/Create.css HTTP/1.1" 304 -
0:0:0:0:0:0:0:1 - - [27/Feb/2020:23:56:20 +0530] "GET /Advance_java_Demo/Create.jsp HTTP/1.1" 200 1168
0:0:0:0:0:0:0:1 - - [27/Feb/2020:23:56:20 +0530] "GET /Advance_java_Demo/Create.css HTTP/1.1" 304 -
0:0:0:0:0:0:0:1 - - [27/Feb/2020:23:56:29 +0530] "POST /Advance_java_Demo/DisplayEmp HTTP/1.1" 200 530
0:0:0:0:0:0:0:1 - - [27/Feb/2020:23:56:32 +0530] "GET /Advance_java_Demo/MainPage.html HTTP/1.1" 200 921
0:0:0:0:0:0:0:1 - - [27/Feb/2020:23:56:33 +0530] "GET /Advance_java_Demo/Update.html HTTP/1.1" 200 824
0:0:0:0:0:0:0:1 - - [27/Feb/2020:23:56:33 +0530] "GET /Advance_java_Demo/Update.css HTTP/1.1" 200 709
0:0:0:0:0:0:0:1 - - [27/Feb/2020:23:56:38 +0530] "GET /Advance_java_Demo/Delete.html HTTP/1.1" 200 712
0:0:0:0:0:0:0:1 - - [27/Feb/2020:23:56:38 +0530] "GET /Advance_java_Demo/Delete.css HTTP/1.1" 200 727
0:0:0:0:0:0:0:1 - - [27/Feb/2020:23:58:05 +0530] "POST /Advance_java_Demo/Login HTTP/1.1" 200 1164
0:0:0:0:0:0:0:1 - - [27/Feb/2020:23:58:15 +0530] "GET /Advance_java_Demo/Update.jsp HTTP/1.1" 200 971
